# callgrind format
version: 1
creator: callgrind-3.15.0
pid: 7452
cmd:  ./profile_native
part: 1


desc: I1 cache: 
desc: D1 cache: 
desc: LL cache: 

desc: Timerange: Basic block 0 - 1302784
desc: Trigger: Program termination

positions: line
events: Ir
summary: 6968111


ob=(1) /usr/lib/ld-2.31.so
fl=(1) ???
fn=(0) 0x0000000000002100
0 2
cfn=(2) _dl_start
calls=1 0 
0 3245982
0 14
cfn=(296) _dl_init
calls=1 0 
0 125605
0 3
cob=(9) /home/heky/Documents/fit/y0/summer/ivs/projects/calculator/build/profiling/profile_native
cfi=(59) ???
cfn=(670) _start
calls=1 0 
0 3596505

fn=(12) get_common_indices.constprop.0
0 93

fn=(68) free
0 45

fn=(78) strcspn
0 220

fn=(118) access
0 9

fn=(128) realloc
0 12
cob=(2) ???
cfi=(2) ???
cfn=(30) 0x00000000040020a0
calls=1 0 
0 27

fn=(140) __pread64_nocancel
0 42

fn=(158) _dl_allocate_tls_storage
0 9
cob=(2)
cfi=(2)
cfn=(30)
calls=1 0 
0 67
0 308
cfn=(160) allocate_dtv
calls=1 0 
0 57
0 7

fn=(22) _dl_next_ld_env_entry
0 405

fn=(32) malloc
0 1155
cfn=(112) mmap
calls=3 0 
0 60
0 35

fn=(36) _dl_add_to_namespace_list
0 63
cfn=(38) rtld_lock_default_lock_recursive
calls=7 0 
0 21
0 240
cfn=(40) rtld_lock_default_unlock_recursive
calls=6 0 
0 18
0 12
cfn=(40)
calls=1 0 
0 3
0 2

fn=(42) strcmp
0 151925

fn=(48) _dl_init_paths
0 13
cfn=(50) _dl_important_hwcaps
calls=1 0 
0 731
0 3
cob=(2)
cfi=(2)
cfn=(30)
calls=1 0 
0 27
0 13
cob=(2)
cfi=(2)
cfn=(30)
calls=1 0 
0 27
0 70
cfn=(16) strlen
calls=1 0 
0 17
0 8
cfn=(34) memcpy
calls=1 0 
0 11
0 89
cob=(2)
cfi=(2)
cfn=(30)
calls=1 0 
0 27
0 10
cfn=(54) fillin_rpath
calls=1 0 
0 564
0 12

fn=(62) index
0 696

fn=(76) handle_preload_list
0 22
cfn=(78)
calls=1 0 
0 220
0 7
cfn=(80) dso_name_valid_for_suid
calls=1 0 
0 11
0 8
cfn=(82) do_preload
calls=1 0 
0 2574
0 6
cfn=(34)
calls=1 0 
0 19
0 12

fn=(98) _dl_name_match_p
0 1528
cfn=(42)
calls=191 0 
0 6630
0 2528
cfn=(42)
calls=212 0 
0 7924
0 1379

fn=(130) getcwd
0 27

fn=(248) _dl_add_to_slotinfo
0 56

fn=(6) _dl_sysdep_start
0 477
cfn=(8) __GI___tunables_init
calls=1 0 
0 26938
0 2
cfn=(10) brk
calls=1 0 
0 10
0 27
cfn=(14) __tunable_get_val
calls=1 0 
0 18
0 4
cfn=(14)
calls=1 0 
0 20
0 6
cfn=(14)
calls=1 0 
0 20
0 6
cfn=(14)
calls=1 0 
0 20
0 9
cfn=(14)
calls=1 0 
0 18
0 4
cfn=(14)
calls=1 0 
0 18
0 10
cfn=(16)
calls=1 0 
0 33
0 3
cfn=(18) sbrk
calls=1 0 
0 18
0 11
cfn=(20) dl_main
calls=1 0 
0 3217029
0 21
cfn=(12)
calls=1 0 
0 93
0 61

fn=(56) strsep
0 215

fn=(110) _dl_process_pt_note
0 294
cfn=(140)
calls=2 0 
0 14
0 281

fn=(124) open_path
0 225
cfn=(52) mempcpy
calls=5 0 
0 65
0 488
cfn=(52)
calls=40 0 
0 555
0 160
cfn=(52)
calls=40 0 
0 520
0 480
cfn=(100) open_verify.constprop.0
calls=40 0 
0 2342
0 166
cob=(2)
cfi=(2)
cfn=(30)
calls=1 0 
0 27
0 10
cfn=(34)
calls=1 0 
0 11
0 444

fn=(288) _dl_sysdep_start_cleanup
0 2

fn=(474) _dl_runtime_resolve_xsave
0 442
cfn=(476) _dl_fixup
calls=17 0 
0 13863
0 255

fn=(475) _dl_runtime_resolve_xsave'2
0 260
cfn=(476)
calls=10 0 
0 7811
0 150

fn=(92) __sigsetjmp
0 414

fn=(120) _dl_map_object_deps
0 187
cob=(2)
cfi=(2)
cfn=(30)
calls=6 0 
0 162
0 54
cfn=(34)
calls=6 0 
0 82
0 36
cfn=(34)
calls=6 0 
0 82
0 276
cob=(2)
cfi=(2)
cfn=(88) 0x0000000004002090
calls=17 0 
0 39639
0 1279
cfn=(60) _dl_dst_count
calls=17 0 
0 786
0 532
cob=(2)
cfi=(2)
cfn=(30)
calls=1 0 
0 27
0 116
cfn=(34)
calls=1 0 
0 27
0 5
cfn=(144) _dl_sort_maps
calls=1 0 
0 885
0 146
cfn=(142) __libc_scratch_buffer_set_array_size
calls=6 0 
0 108
0 40

fn=(134) _dl_sysdep_read_whole_file
0 12
cfn=(102) __open_nocancel
calls=1 0 
0 19
0 14
cfn=(108) _fxstat
calls=1 0 
0 11
0 8
cfn=(116) __GI___close_nocancel
calls=1 0 
0 6
0 7
cfn=(112)
calls=1 0 
0 20
0 2

fn=(142)
0 108

fn=(160)
0 9
cob=(2)
cfi=(2)
cfn=(26) 0x00000000040020c0
calls=1 0 
0 38
0 10

fn=(2)
0 270
cfn=(4) _dl_setup_hash
calls=1 0 
0 24
0 12
cfn=(6)
calls=1 0 
0 3244876
0 800

fn=(28) calloc
0 171
cob=(2)
cfi=(2)
cfn=(30)
calls=19 0 
0 598

fn=(104) __read_nocancel
0 36

fn=(122) openaux
0 255
cfn=(96) _dl_map_object
calls=17 0 
0 38296
0 51

fn=(138) _dl_next_tls_modid
0 14

fn=(164) dl_cet_check
0 31

fn=(8)
0 26938

fn=(16)
0 831

fn=(54)
0 20
cfn=(56)
calls=1 0 
0 206
0 3
cfn=(56)
calls=1 0 
0 9
0 11
cfn=(58) expand_dynamic_string_token
calls=1 0 
0 133
0 5
cfn=(16)
calls=1 0 
0 17
0 20
cob=(2)
cfi=(2)
cfn=(66) 0x0000000004002080
calls=1 0 
0 7
0 11
cob=(2)
cfi=(2)
cfn=(30)
calls=1 0 
0 27
0 9
cfn=(52)
calls=1 0 
0 13
0 73

fn=(96)
0 1680
cfn=(98)
calls=96 0 
0 10370
0 976
cfn=(42)
calls=52 0 
0 1899
0 356
cfn=(62)
calls=6 0 
0 144
0 17
cfn=(58)
calls=1 0 
0 183
0 11
cfn=(100)
calls=1 0 
0 236
0 21
cfn=(106) _dl_map_object_from_fd
calls=1 0 
0 1647
0 70
cfn=(106)
calls=5 0 
0 10096
0 28
cfn=(16)
calls=5 0 
0 85
0 100
cfn=(124)
calls=5 0 
0 5493
0 206
cfn=(132) _dl_load_cache_lookup
calls=4 0 
0 5713
0 60
cfn=(100)
calls=4 0 
0 1221
0 129

fn=(172) check_match
0 86763
cfn=(42)
calls=246 0 
0 12579
0 79794
cfn=(42)
calls=3126 0 
0 117860
0 6252

fn=(38)
0 393

fn=(132)
0 117
cfn=(42)
calls=4 0 
0 172
0 28
cfn=(42)
calls=4 0 
0 200
0 36
cfn=(14)
calls=4 0 
0 80
0 487
cfn=(136) _dl_cache_libcmp
calls=36 0 
0 2880
0 206
cfn=(136)
calls=5 0 
0 541
0 205
cfn=(16)
calls=4 0 
0 140
0 32
cfn=(34)
calls=4 0 
0 44
0 8
cfn=(64) strdup
calls=4 0 
0 364
0 36
cfn=(134)
calls=1 0 
0 99
0 38

fn=(148) version_check_doit
0 7
cfn=(150) _dl_check_all_versions
calls=1 0 
0 23079
0 4

fn=(282) _dl_higher_prime_number
0 159

fn=(292) munmap
0 6

fn=(296)
0 85
cfn=(298) call_init.part.0
calls=7 0 
0 125411
0 35
cfn=(298)
calls=1 0 
0 72
0 2

fn=(1046) _dl_fini
0 24
cfn=(38)
calls=1 0 
0 3
0 127
cfn=(144)
calls=1 0 
0 976
0 2
cfn=(40)
calls=1 0 
0 3
0 168
cob=(6) /usr/lib/libgcc_s.so.1
cfi=(8) ???
cfn=(1176) 0x0000000000003720
calls=1 0 
0 177
cob=(4) /usr/lib/libm-2.31.so
cfi=(4) ???
cfn=(1160) 0x000000000000f3f0
calls=1 0 
0 177
cob=(7) /usr/lib/libstdc++.so.6.0.28
cfi=(9) ???
cfn=(1124) 0x00000000000a0180
calls=1 0 
0 390
cob=(8) /home/heky/Documents/fit/y0/summer/ivs/projects/calculator/build/libcalc/libcalc.so.1
cfi=(25) ???
cfn=(1084) 0x0000000000002900
calls=1 0 
0 1317
cob=(5) /usr/lib/valgrind/vgpreload_core-amd64-linux.so
cfi=(5) ???
cfn=(1068) 0x00000000000010c0
calls=1 0 
0 177
cob=(9)
cfi=(59)
cfn=(1048) 0x0000000000002740
calls=1 0 
0 177
0 60
cob=(2)
cfi=(2)
cfn=(1190) 0x0000000004bcc578
calls=1 0 
0 4
cob=(2)
cfi=(2)
cfn=(1174) 0x0000000004b1dd38
calls=1 0 
0 4
cob=(2)
cfi=(2)
cfn=(1158) 0x0000000004a18214
calls=1 0 
0 4
cob=(2)
cfi=(2)
cfn=(1122) 0x0000000004838458
calls=1 0 
0 4
cob=(2)
cfi=(2)
cfn=(1082) 0x000000000482f288
calls=1 0 
0 4
cob=(2)
cfi=(2)
cfn=(1066) 0x000000000010ba18
calls=1 0 
0 4
0 111

fn=(24) _dl_new_object
0 136
cfn=(16)
calls=6 0 
0 120
0 54
cob=(2)
cfi=(2)
cfn=(26)
calls=6 0 
0 267
0 4
cob=(2)
cfi=(2)
cfn=(26)
calls=1 0 
0 45
0 105
cfn=(34)
calls=7 0 
0 88
0 488
cfn=(16)
calls=6 0 
0 210
0 53
cob=(2)
cfi=(2)
cfn=(126) 0x00000000040020d0
calls=1 0 
0 41
0 7
cfn=(130)
calls=1 0 
0 27
0 152
cfn=(52)
calls=1 0 
0 13
0 15
cfn=(52)
calls=5 0 
0 73
0 544
cob=(2)
cfi=(2)
cfn=(30)
calls=5 0 
0 135
0 36

fn=(86) _dl_catch_error
0 12
cob=(2)
cfi=(2)
cfn=(88)
calls=1 0 
0 2521
0 11

fn=(108)
0 77

fn=(114) memset
0 1249

fn=(146) _dl_receive_error
0 11
cfn=(148)
calls=1 0 
0 23090
0 6

fn=(4)
0 192

fn=(46) uname
0 6

fn=(52)
0 1345

fn=(80)
0 11

fn=(94) map_doit
0 12
cfn=(96)
calls=1 0 
0 2445
0 3

fn=(156) _dl_determine_tlsoffset
0 101

fn=(290) _dl_unload_cache
0 8
cfn=(292)
calls=1 0 
0 6
0 3

fn=(100)
0 855
cfn=(102)
calls=45 0 
0 972
0 201
cfn=(104)
calls=6 0 
0 36
0 120
cob=(2)
cfi=(2)
cfn=(66)
calls=6 0 
0 42
0 1226
cfn=(140)
calls=2 0 
0 14
0 278
cfn=(140)
calls=1 0 
0 7
0 48

fn=(152) _dl_check_map_versions
0 917
cfn=(98)
calls=95 0 
0 9619
0 5850
cfn=(42)
calls=43 0 
0 1867
0 1306
cob=(2)
cfi=(2)
cfn=(26)
calls=7 0 
0 305
0 3091

fn=(44) _dl_discover_osversion
0 15
cfn=(46)
calls=1 0 
0 6
0 59

fn=(50)
0 20
cfn=(14)
calls=1 0 
0 20
0 59
cfn=(16)
calls=1 0 
0 17
0 70
cob=(2)
cfi=(2)
cfn=(30)
calls=1 0 
0 27
0 36
cfn=(52)
calls=1 0 
0 17
0 4
cfn=(52)
calls=1 0 
0 17
0 29
cfn=(52)
calls=1 0 
0 15
0 10
cfn=(52)
calls=2 0 
0 30
0 360

fn=(144)
0 60
cfn=(114)
calls=2 0 
0 28
0 1444
cfn=(114)
calls=12 0 
0 184
0 145

fn=(18)
0 18

fn=(58)
0 18
cfn=(60)
calls=2 0 
0 108
0 18
cfn=(64)
calls=2 0 
0 172

fn=(154) init_tls
0 9
cob=(2)
cfi=(2)
cfn=(26)
calls=1 0 
0 38
0 73
cfn=(156)
calls=1 0 
0 101
0 1
cfn=(158)
calls=1 0 
0 448
0 16

fn=(246) mprotect
0 48

fn=(40)
0 393

fn=(116)
0 42

fn=(136)
0 3421

fn=(166) _dl_relocate_object
0 262665
cfn=(168) _dl_lookup_symbol_x
calls=3184 0 
0 2682334
0 92155
cob=(4)
cfi=(4)
cfn=(280) sin
calls=1 0 
0 16
cob=(4)
cfi=(4)
cfn=(278) __atan2_finite
calls=1 0 
0 16
cob=(4)
cfi=(4)
cfn=(276) exp2f
calls=1 0 
0 9
cob=(4)
cfi=(4)
cfn=(274) __asin_finite
calls=1 0 
0 13
cob=(4)
cfi=(4)
cfn=(272) sinf
calls=1 0 
0 9
cob=(4)
cfi=(4)
cfn=(270) __acos_finite
calls=1 0 
0 13
cob=(4)
cfi=(4)
cfn=(268) __log_finite
calls=1 0 
0 16
cob=(4)
cfi=(4)
cfn=(266) log2f
calls=1 0 
0 9
cob=(4)
cfi=(4)
cfn=(264) __pow_finite
calls=1 0 
0 13
cob=(4)
cfi=(4)
cfn=(262) powf
calls=1 0 
0 9
cob=(4)
cfi=(4)
cfn=(260) sincosf
calls=1 0 
0 9
cob=(4)
cfi=(4)
cfn=(258) logf
calls=1 0 
0 9
cob=(4)
cfi=(4)
cfn=(256) cos
calls=1 0 
0 16
cob=(4)
cfi=(4)
cfn=(254) expf
calls=1 0 
0 9
cob=(4)
cfi=(4)
cfn=(252) __exp_finite
calls=1 0 
0 16
cob=(4)
cfi=(4)
cfn=(250) cosf
calls=1 0 
0 9
cob=(3) /usr/lib/libc-2.31.so
cfi=(3) ???
cfn=(242) strncasecmp_l
calls=1 0 
0 6
cob=(3)
cfi=(3)
cfn=(240) strchrnul
calls=1 0 
0 10
cob=(3)
cfi=(3)
cfn=(238) wmemcmp
calls=1 0 
0 11
cob=(3)
cfi=(3)
cfn=(236) stpcpy
calls=1 0 
0 12
cob=(3)
cfi=(3)
cfn=(234) stpncpy
calls=1 0 
0 12
cob=(3)
cfi=(3)
cfn=(232) strspn
calls=1 0 
0 7
cob=(3)
cfi=(3)
cfn=(230) wcslen
calls=1 0 
0 10
cob=(3)
cfi=(3)
cfn=(228) memchr
calls=1 0 
0 10
cob=(3)
cfi=(3)
cfn=(226) strcasecmp_l
calls=1 0 
0 6
cob=(3)
cfi=(3)
cfn=(224) memrchr
calls=1 0 
0 10
cob=(3)
cfi=(3)
cfn=(222) strlen
calls=1 0 
0 10
cob=(3)
cfi=(3)
cfn=(220) index
calls=1 0 
0 13
cob=(3)
cfi=(3)
cfn=(218) strpbrk
calls=1 0 
0 7
cob=(3)
cfi=(3)
cfn=(216) wcscpy
calls=1 0 
0 7
cob=(3)
cfi=(3)
cfn=(214) wmemset
calls=2 0 
0 22
cob=(3)
cfi=(3)
cfn=(212) wcsnlen
calls=1 0 
0 13
cob=(3)
cfi=(3)
cfn=(210) memcpy@@GLIBC_2.14
calls=1 0 
0 21
cob=(3)
cfi=(3)
cfn=(208) strcpy
calls=1 0 
0 12
cob=(3)
cfi=(3)
cfn=(206) strncasecmp
calls=1 0 
0 6
cob=(3)
cfi=(3)
cfn=(204) strcspn
calls=1 0 
0 7
cob=(3)
cfi=(3)
cfn=(202) strnlen
calls=2 0 
0 20
cob=(3)
cfi=(3)
cfn=(200) wcschr
calls=2 0 
0 20
cob=(3)
cfi=(3)
cfn=(198) memset
calls=1 0 
0 19
cob=(3)
cfi=(3)
cfn=(196) strcmp
calls=1 0 
0 12
cob=(3)
cfi=(3)
cfn=(194) strncmp
calls=1 0 
0 15
cob=(3)
cfi=(3)
cfn=(192) bcmp
calls=1 0 
0 11
cob=(3)
cfi=(3)
cfn=(190) mempcpy
calls=1 0 
0 21
cob=(3)
cfi=(3)
cfn=(188) wcscmp
calls=1 0 
0 10
cob=(3)
cfi=(3)
cfn=(186) wmemchr
calls=2 0 
0 20
cob=(3)
cfi=(3)
cfn=(184) rawmemchr
calls=1 0 
0 10
cob=(3)
cfi=(3)
cfn=(182) rindex
calls=1 0 
0 10
cob=(3)
cfi=(3)
cfn=(180) strcat
calls=1 0 
0 12
cob=(3)
cfi=(3)
cfn=(178) strcasecmp
calls=1 0 
0 6
cob=(3)
cfi=(3)
cfn=(176) strncpy
calls=1 0 
0 12
cob=(3)
cfi=(3)
cfn=(174) memmove
calls=2 0 
0 42
0 28213
cfn=(168)
calls=6 0 
0 4117
0 22629
cob=(3)
cfi=(3)
cfn=(214)
calls=1 0 
0 11
cob=(3)
cfi=(3)
cfn=(188)
calls=1 0 
0 10
cob=(3)
cfi=(3)
cfn=(192)
calls=1 0 
0 11
cob=(3)
cfi=(3)
cfn=(196)
calls=1 0 
0 12
cob=(3)
cfi=(3)
cfn=(220)
calls=1 0 
0 13
cob=(3)
cfi=(3)
cfn=(174)
calls=1 0 
0 21
cob=(3)
cfi=(3)
cfn=(186)
calls=1 0 
0 10
cob=(3)
cfi=(3)
cfn=(284) gettimeofday
calls=1 0 
0 7
cob=(3)
cfi=(3)
cfn=(238)
calls=1 0 
0 11
cob=(3)
cfi=(3)
cfn=(228)
calls=1 0 
0 10
cob=(3)
cfi=(3)
cfn=(230)
calls=1 0 
0 10
cob=(3)
cfi=(3)
cfn=(210)
calls=2 0 
0 42
cob=(3)
cfi=(3)
cfn=(198)
calls=2 0 
0 38
cob=(3)
cfi=(3)
cfn=(222)
calls=2 0 
0 20
0 18584
cfn=(244) _dl_protect_relro
calls=8 0 
0 216
0 29799

fn=(394) _dl_find_dso_for_object
0 72

fn=(476)
0 1431
cfn=(168)
calls=27 0 
0 19468
0 731
cob=(3)
cfi=(3)
cfn=(174)
calls=2 0 
0 42
0 2

fn=(10)
0 10

fn=(14)
0 451

fn=(72) _dl_count_modids
0 6

fn=(102)
0 991

fn=(112)
0 560

fn=(168)
0 1280420
cfn=(170) do_lookup_x
calls=3217 0 
0 1313442
0 112057

fn=(20)
0 36
cfn=(22)
calls=1 0 
0 383
0 4
cfn=(22)
calls=2 0 
0 22
0 173
cfn=(24)
calls=1 0 
0 297
0 11
cfn=(36)
calls=1 0 
0 35
0 154
cfn=(42)
calls=1 0 
0 25
0 327
cfn=(4)
calls=1 0 
0 24
0 7
cfn=(44)
calls=1 0 
0 80
0 140
cfn=(48)
calls=1 0 
0 1622
0 3
cfn=(70) _dl_debug_initialize
calls=1 0 
0 18
0 44
cfn=(72)
calls=1 0 
0 6
0 12
cfn=(74) _dl_debug_state
calls=1 0 
0 2
0 14
cfn=(118)
calls=1 0 
0 9
0 18
cfn=(120)
calls=1 0 
0 44469
0 168
cfn=(146)
calls=1 0 
0 23107
0 28
cfn=(286) _dl_allocate_tls_init
calls=1 0 
0 205
0 15
cfn=(162) _dl_cet_check
calls=1 0 
0 33
0 165
cfn=(166)
calls=7 0 
0 3133296
0 26
cfn=(248)
calls=2 0 
0 56
0 32
cfn=(166)
calls=1 0 
0 8285
0 6
cfn=(288)
calls=1 0 
0 2
0 6
cfn=(70)
calls=1 0 
0 9
0 2
cfn=(74)
calls=1 0 
0 2
0 1
cfn=(290)
calls=1 0 
0 17
0 33
cfn=(154)
calls=1 0 
0 686
0 10
cfn=(76)
calls=1 0 
0 2879
0 25

fn=(34)
0 438

fn=(64)
0 36
cfn=(16)
calls=6 0 
0 192
0 18
cob=(2)
cfi=(2)
cfn=(30)
calls=6 0 
0 162
0 54
cfn=(34)
calls=6 0 
0 74

fn=(70)
0 81

fn=(74)
0 4

fn=(286)
0 93
cfn=(52)
calls=2 0 
0 27
0 10
cfn=(114)
calls=2 0 
0 47
0 28

fn=(90) _dl_catch_exception
0 342
cfn=(92)
calls=18 0 
0 414
0 126
cfn=(122)
calls=17 0 
0 38602
cfn=(94)
calls=1 0 
0 2460
0 180

fn=(170)
0 920718
cfn=(172)
calls=3177 0 
0 303248
0 42497
cfn=(38)
calls=122 0 
0 366
0 5704
cfn=(42)
calls=40 0 
0 2769
0 360
cfn=(40)
calls=40 0 
0 120
0 3462
cfn=(40)
calls=82 0 
0 246
0 2390
cob=(2)
cfi=(2)
cfn=(26)
calls=1 0 
0 38
0 3167
cfn=(282)
calls=2 0 
0 159
0 8
cob=(2)
cfi=(2)
cfn=(26)
calls=2 0 
0 76
0 2462
cfn=(68)
calls=2 0 
0 10
0 25642

fn=(244)
0 152
cfn=(246)
calls=8 0 
0 48
0 16

fn=(60)
0 171
cfn=(62)
calls=19 0 
0 552
0 171

fn=(298)
0 197
cob=(2)
cfi=(2)
cfn=(456) 0x0000000004837000
calls=1 0 
0 7
cob=(2)
cfi=(2)
cfn=(354) 0x0000000004920000
calls=1 0 
0 7
cob=(2)
cfi=(2)
cfn=(344) 0x0000000004a82000
calls=1 0 
0 7
cob=(2)
cfi=(2)
cfn=(328) 0x0000000004bbc000
calls=1 0 
0 7
cob=(3)
cfi=(3)
cfn=(310) _init
calls=1 0 
0 121
cob=(2)
cfi=(2)
cfn=(300) 0x000000000482f000
calls=1 0 
0 7
0 102
cob=(8)
cfi=(25)
cfn=(460) 0x0000000000002950
calls=1 0 
0 12
cob=(7)
cfi=(9)
cfn=(358) 0x00000000000a01d0
calls=1 0 
0 12
cob=(4)
cfi=(4)
cfn=(348) 0x000000000000f440
calls=1 0 
0 12
cob=(6)
cfi=(6) /build/gcc/src/gcc/libgcc/config/i386/cpuinfo.c
cfn=(332) __cpu_indicator_init@GCC_4.8.0
calls=1 425 
0 161
cob=(3)
cfi=(3)
cfn=(320) check_stdfiles_vtables
calls=1 0 
0 12
cob=(5)
cfi=(5)
cfn=(304) 0x0000000000001110
calls=1 0 
0 12
0 60
cob=(8)
cfi=(25)
cfn=(666) _GLOBAL__sub_I_libcalc_math.cpp
calls=1 0 
0 235
cob=(8)
cfi=(25)
cfn=(466) _GLOBAL__sub_I_libcalc.cpp
calls=1 0 
0 48377
cob=(7)
cfi=(24) /build/gcc/src/gcc/libstdc++-v3/src/c++17/memory_resource.cc
cfn=(454) _GLOBAL__sub_I_memory_resource.cc
calls=1 1402 
0 252
cob=(7)
cfi=(20) /build/gcc/src/gcc/libstdc++-v3/src/c++11/locale-inst.cc
cfn=(446) _GLOBAL__sub_I_wlocale_inst.cc
calls=1 380 
0 50
cob=(7)
cfi=(20)
cfn=(438) _GLOBAL__sub_I_locale_inst.cc
calls=1 380 
0 50
cob=(7)
cfi=(20)
cfn=(430) _GLOBAL__sub_I_cxx11_wlocale_inst.cc
calls=1 380 
0 34
cob=(7)
cfi=(20)
cfn=(422) _GLOBAL__sub_I_cxx11_locale_inst.cc
calls=1 380 
0 34
cob=(7)
cfi=(19) /build/gcc/src/gcc/libstdc++-v3/src/c++11/system_error.cc
cfn=(420) _GLOBAL__sub_I_system_error.cc
calls=1 378 
0 169
cob=(7)
cfi=(18) /build/gcc/src/gcc/libstdc++-v3/src/c++98/parallel_settings.cc
cfn=(418) _GLOBAL__sub_I_parallel_settings.cc
calls=1 42 
0 52
cob=(7)
cfi=(15) /build/gcc/src/gcc/libstdc++-v3/src/c++98/bitmap_allocator.cc
cfn=(412) _GLOBAL__sub_I_bitmap_allocator.cc
calls=1 125 
0 74
cob=(7)
cfi=(14) /build/gcc/src/gcc/libstdc++-v3/libsupc++/eh_alloc.cc
cfn=(382) _GLOBAL__sub_I_eh_alloc.cc
calls=1 338 
0 73234
cob=(7)
cfi=(11) /build/gcc/src/gcc/libstdc++-v3/src/c++11/compatibility-thread-c++0x.cc
cfn=(374) _GLOBAL__sub_I_compatibility_thread_c__0x.cc
calls=1 124 
0 152
cob=(7)
cfi=(10) /build/gcc/src/gcc/libstdc++-v3/src/c++11/compatibility-c++0x.cc
cfn=(364) _GLOBAL__sub_I_compatibility_c__0x.cc
calls=1 256 
0 187
cob=(6)
cfi=(8)
cfn=(338) 0x0000000000003770
calls=1 0 
0 12
cob=(3)
cfi=(3)
cfn=(322) init_cacheinfo
calls=1 0 
0 1718
0 117

fn=(82)
0 17
cob=(2)
cfi=(2)
cfn=(84) 0x00000000040020f0
calls=1 0 
0 2546
0 11

fn=(106)
0 102
cfn=(70)
calls=6 0 
0 54
0 150
cfn=(24)
calls=6 0 
0 2316
0 2450
cfn=(112)
calls=6 0 
0 120
0 420
cfn=(114)
calls=6 0 
0 990
0 426
cfn=(112)
calls=18 0 
0 324
0 155
cfn=(110)
calls=10 0 
0 589
0 246
cfn=(108)
calls=6 0 
0 66
0 350
cfn=(140)
calls=1 0 
0 7
0 2167
cfn=(116)
calls=2 0 
0 12
0 8
cfn=(116)
calls=4 0 
0 24
0 72
cfn=(4)
calls=6 0 
0 144
0 94
cfn=(138)
calls=2 0 
0 14
0 8
cfn=(36)
calls=2 0 
0 116
0 12
cfn=(36)
calls=4 0 
0 208
0 38
cfn=(112)
calls=2 0 
0 36
0 25

fn=(150)
0 61
cfn=(152)
calls=8 0 
0 22955
0 63

fn=(162)
0 2
cfn=(164)
calls=1 0 
0 31

ob=(4)
fl=(4)
fn=(348)
0 12

fn=(272)
0 9

fn=(274)
0 13

fn=(260)
0 9

fn=(270)
0 13

fn=(892) pow
0 5010
cob=(2)
cfi=(2)
cfn=(894) 0x0000000004a822d0
calls=1002 0 
0 171376
0 14028

fn=(250)
0 9

fn=(252)
0 16

fn=(896) 0x000000000002e120
0 164352

ob=(2)
fl=(2)
fn=(300)
0 7

fn=(344)
0 7

fn=(894)
0 2004
cob=(4)
cfi=(4)
cfn=(896)
calls=1002 0 
0 169372

fn=(1066)
0 4

fn=(26)
0 38
cob=(1)
cfi=(1)
cfn=(28)
calls=19 0 
0 769

fn=(398) 0x0000000004bf8450
0 24
cob=(1)
cfi=(1)
cfn=(14)
calls=12 0 
0 237

fn=(550) 0x0000000004bf8460
0 2138
cob=(3)
cfi=(3)
cfn=(552) __strlen_sse2
calls=1069 0 
0 18173

fn=(676) 0x000000000010a000
0 7

fn=(30)
0 90
cob=(1)
cfi=(1)
cfn=(32)
calls=45 0 
0 1250

ob=(4)
fl=(4)
fn=(896)
0 5020

fn=(1160)
0 9
cob=(3)
cfi=(3)
cfn=(1054) __cxa_finalize
calls=1 0 
0 159
0 1
cfn=(1168) 0x000000000000f380
calls=1 0 
0 5
0 3

fn=(266)
0 9

fn=(268)
0 16

fn=(1168)
0 5

fn=(254)
0 9

fn=(256)
0 16

fn=(280)
0 11

ob=(2)
fl=(2)
fn=(88)
0 36
cob=(1)
cfi=(1)
cfn=(90)
calls=18 0 
0 42124

fn=(354)
0 7

fn=(392) 0x0000000004bf8510
0 2
cob=(1)
cfi=(1)
cfn=(394)
calls=1 0 
0 72

fn=(456)
0 7

fn=(554) 0x0000000004bf8590
0 98
cob=(3)
cfi=(3)
cfn=(556) __memcmp_sse4_1
calls=49 0 
0 1140

fn=(756) 0x0000000004bf8310
0 4
cob=(3)
cfi=(3)
cfn=(384) malloc
calls=2 0 
0 225

fn=(1008) 0x0000000004bf85a0
0 2
cob=(3)
cfi=(3)
cfn=(1010) __mempcpy_sse2_unaligned
calls=1 0 
0 16

fn=(1122)
0 4

fn=(1190)
0 4

fn=(66)
0 14
cob=(1)
cfi=(1)
cfn=(68)
calls=7 0 
0 35

fn=(940) 0x0000000004837270
0 1
cob=(8)
cfi=(25)
cfn=(942) libcalcMath::root(double, double)
calls=1 0 
0 178

fn=(1082)
0 4

ob=(4)
fl=(4)
fn=(280)
0 5

fn=(262)
0 9

fn=(264)
0 13

fn=(258)
0 9

fn=(276)
0 9

fn=(278)
0 16

ob=(2)
fl=(2)
fn=(1174)
0 4

fn=(84)
0 2
cob=(1)
cfi=(1)
cfn=(86)
calls=1 0 
0 2544

fn=(774) 0x0000000004bf84d0
0 4194
cob=(3)
cfi=(3)
cfn=(776) memcpy@GLIBC_2.2.5
calls=2097 0 
0 23067

fn=(986) 0x0000000004bf8390
0 4
cob=(3)
cfi=(3)
cfn=(988) __strchrnul_sse2
calls=2 0 
0 42

fn=(126)
0 2
cob=(1)
cfi=(1)
cfn=(128)
calls=1 0 
0 39

fn=(314) 0x0000000004bf85e0
0 2
cob=(3)
cfi=(3)
cfn=(316) __strrchr_sse2
calls=1 0 
0 55

fn=(328)
0 7

fn=(1158)
0 4

ob=(8)
fl=(25)
fn=(466)
0 3
cob=(1)
cfi=(1)
cfn=(474)
calls=1 0 
0 47275
0 5
0 4
cob=(1)
cfi=(1)
cfn=(474)
calls=1 0 
0 962
0 5
0 43
cob=(3)
cfi=(3)
cfn=(368) __cxa_atexit
calls=1 0 
0 79
0 1

fn=(924) libcalcMath::mul(double, double)
0 2

fn=(460)
0 12

fn=(716) Calculator::Calculator(double)
0 11
cob=(1)
cfi=(1)
cfn=(475)
calls=1 0 
0 2174
0 5
0 5

fn=(732) CommandFactory::CommandFactory(Calculator*)
0 2

fn=(852) Command::apply(double)
0 48096
cob=(9)
cfi=(59)
cfn=(854) std::_Function_handler<double (double, double), double (*)(double, double)>::_M_invoke(std::_Any_data const&, double&&, double&&)
calls=4008 0 
0 215172
0 20040

fn=(938) libcalcMath::sqrt(double, double)
0 2
cob=(2)
cfi=(2)
cfn=(940)
calls=1 0 
0 179

fn=(878) CommandFactory::checkNthPowerArguments(double, double)
0 10503
cfn=(884) libcalcMath::isInteger(double)
calls=501 0 
0 11523
cob=(1)
cfi=(1)
cfn=(475)
calls=1 0 
0 757
0 506
0 3012

fn=(814) CommandFactory::createCommand(Command::CommandType, double)
0 52104
cfn=(820) Calculator::getCurrentState()
calls=4007 0 
0 8014
cob=(1)
cfi=(1)
cfn=(475)
calls=1 0 
0 768
0 4012
0 16032
cfn=(826) CommandFactory::areCommandArgumentsValid(Command::CommandType, double, double)
calls=4007 0 
0 61026
cob=(1)
cfi=(1)
cfn=(475)
calls=1 0 
0 1075
0 4012
0 38076
cob=(9)
cfi=(59)
cfn=(832) std::function<double (double, double)>::function(std::function<double (double, double)> const&)
calls=3005 0 
0 81135
cob=(1)
cfi=(1)
cfn=(475)
calls=1 0 
0 791
0 3010
0 12024
cfn=(840) Command::Command(std::function<double (double, double)>, double)
calls=3005 0 
0 114190
cob=(1)
cfi=(1)
cfn=(475)
calls=1 0 
0 804
0 3010
0 21042
cob=(9)
cfi=(59)
cfn=(834) std::_Function_base::_Base_manager<double (*)(double, double)>::_M_manager(std::_Any_data&, std::_Any_data const&, std::_Manager_operation)
calls=3006 0 
0 24048
0 47094
cfn=(840)
calls=1002 0 
0 38076
0 1002
0 7014
cob=(9)
cfi=(59)
cfn=(834)
calls=1002 0 
0 8016
0 1002

fn=(846) Calculator::applyCommand(Command)
0 64128
cfn=(852)
calls=4007 0 
0 283285
cob=(1)
cfi=(1)
cfn=(475)
calls=1 0 
0 669
0 4012
0 40044
cfn=(722) void std::vector<double, std::allocator<double> >::_M_realloc_insert<double const&>(__gnu_cxx::__normal_iterator<double*, std::vector<double, std::allocator<double> > >, double const&)
calls=12 0 
0 12365
0 12
0 36

fn=(666)
0 3
cob=(7)
cfi=(26) /build/gcc/src/gcc/libstdc++-v3/src/c++98/ios_init.cc
cfn=(478) std::ios_base::Init::Init()
calls=1 78 
0 24
0 1
0 4
cob=(3)
cfi=(3)
cfn=(368)
calls=1 0 
0 79
0 1
0 43
cob=(3)
cfi=(3)
cfn=(368)
calls=1 0 
0 79
0 1

fn=(722)
0 386
cob=(7)
cfi=(60) /build/gcc/src/gcc/libstdc++-v3/libsupc++/new_op.cc
cfn=(710) operator new(unsigned long)
calls=12 43 
0 1871
cob=(1)
cfi=(1)
cfn=(475)
calls=1 0 
0 886
0 17
0 350
cob=(3)
cfi=(3)
cfn=(776)
calls=11 0 
0 6806
cob=(1)
cfi=(1)
cfn=(475)
calls=1 0 
0 871
0 16
0 72
cob=(7)
cfi=(61) /build/gcc/src/gcc/libstdc++-v3/libsupc++/del_op.cc
cfn=(800) operator delete(void*)
calls=11 48 
0 1140
cob=(1)
cfi=(1)
cfn=(475)
calls=1 0 
0 781
0 16
0 98

fn=(856) libcalcMath::add(double, double)
0 4000

fn=(1084)
0 9
cob=(3)
cfi=(3)
cfn=(1054)
calls=1 0 
0 1299
0 1
cfn=(1116) 0x0000000000002890
calls=1 0 
0 5
0 3

fn=(1090) __tcf_0
0 77
cob=(9)
cfi=(59)
cfn=(834)
calls=9 0 
0 72
0 108
cob=(9)
cfi=(59)
cfn=(834)
calls=9 0 
0 72
0 31

fn=(870) libcalcMath::doubleEqual(double, double)
0 12

fn=(932) setCommandFunction(double, double)
0 2004

fn=(840)
0 20040
cob=(9)
cfi=(59)
cfn=(832)
calls=4008 0 
0 108216
0 4008
0 20040

fn=(872) libcalcMath::div(double, double)
0 4

fn=(1116)
0 5

fn=(820)
0 10020

fn=(884)
0 11546

fn=(936) libcalcMath::sub(double, double)
0 2

fn=(826)
0 20067
cfn=(870)
calls=1 0 
0 6
cob=(1)
cfi=(1)
cfn=(474)
calls=1 0 
0 756
0 6
0 1015
cfn=(878)
calls=1000 0 
0 25525
cob=(1)
cfi=(1)
cfn=(474)
calls=1 0 
0 1638
0 1005
0 11013

fn=(886) libcalcMath::power(double, double)
0 1001
cob=(4)
cfi=(4)
cfn=(892)
calls=1000 0 
0 190034
cob=(1)
cfi=(1)
cfn=(474)
calls=1 0 
0 907
0 1005

fn=(942)
0 4
cob=(4)
cfi=(4)
cfn=(892)
calls=1 0 
0 173
0 1

ob=(7)
fl=(37) /build/gcc/src/gcc-build/x86_64-pc-linux-gnu/libstdc++-v3/include/x86_64-pc-linux-gnu/bits/messages_members.h
fn=(528) std::__cxx11::messages<char>::messages(unsigned long)
44 2
fi=(23) /build/gcc/src/gcc-build/x86_64-pc-linux-gnu/libstdc++-v3/include/bits/locale_classes.h
403 1
fe=(37)
44 3
fi=(23)
403 3
fe=(37)
46 3
-1 1
cfi=(29) /build/gcc/src/gcc/libstdc++-v3/src/c++98/locale.cc
cfn=(494) std::locale::facet::_S_get_c_locale()
calls=1 215 
* 10
+1 2
cfi=(29)
cfn=(490) std::locale::facet::_S_get_c_name()
calls=1 230 
* 3
* 1
+1 4

fn=(570) std::__cxx11::messages<wchar_t>::messages(unsigned long)
44 2
fi=(23)
403 1
fe=(37)
44 3
fi=(23)
403 3
fe=(37)
46 3
-1 1
cfi=(29)
cfn=(494)
calls=1 215 
* 10
+1 2
cfi=(29)
cfn=(490)
calls=1 230 
* 3
* 1
+1 4

fn=(594) std::messages<wchar_t>::messages(unsigned long)
44 2
fi=(23)
403 1
fe=(37)
44 3
fi=(23)
403 3
fe=(37)
46 3
-1 1
cfi=(29)
cfn=(494)
calls=1 215 
* 10
+1 2
cfi=(29)
cfn=(490)
calls=1 230 
* 3
* 1
+1 4

fn=(586) std::messages<char>::messages(unsigned long)
44 2
fi=(23)
403 1
fe=(37)
44 3
fi=(23)
403 3
fe=(37)
46 3
-1 1
cfi=(29)
cfn=(494)
calls=1 215 
* 10
+1 2
cfi=(29)
cfn=(490)
calls=1 230 
* 3
* 1
+1 4

fl=(43) /build/gcc/src/gcc-build/x86_64-pc-linux-gnu/libstdc++-v3/src/c++98/numeric_members_cow.cc
fn=(588) std::numpunct<wchar_t>::_M_initialize_numpunct(__locale_struct*)
183 8
+1 2
+3 2
+69 1
+1 1
-1 1
+3 2
+1 1
+1 6
-71 3
+4 2
+6 1
-9 1
+1 1
+8 1
-2 2
+2 2
-2 3
+2 70
-2 105
+6 2
-2 2
+2 2
-2 3
+2 50
-2 76

fn=(576) std::numpunct<char>::_M_initialize_numpunct(__locale_struct*)
92 8
+1 2
+3 2
+36 1
+32 1
+1 1
-1 1
+3 2
+1 1
+1 6
-70 3
+1 1
+1 1
+2 1
+1 2
+3 2
-1 2
+1 3
-1 3
+1 105
-1 105
+4 2
-1 2
+1 3
-1 3
+1 75
-1 76

fl=(19)
fn=(1136) (anonymous namespace)::system_error_category::~system_error_category()
55 4
cfi=(69) /build/gcc/src/gcc-build/x86_64-pc-linux-gnu/libstdc++-v3/include/system_error
cfn=(1138) std::_V2::error_category::~error_category()
calls=1 +19 
* 2

fn=(420)
378 2
-52 4
cob=(3)
cfi=(3)
cfn=(368)
calls=1 0 
* 79
+1 2
+51 1
-51 2
cob=(3)
cfi=(3)
cfn=(368)
calls=1 0 
* 79

fn=(1140) (anonymous namespace)::generic_error_category::~generic_error_category()
39 4
cfi=(69)
cfn=(1138)
calls=1 +35 
* 2

fl=(39) /build/gcc/src/gcc-build/x86_64-pc-linux-gnu/libstdc++-v3/src/c++11/ctype_members.cc
fn=(532) std::ctype<wchar_t>::_M_initialize_ctype()
273 6
+2 1
-2 1
+2 2
cob=(3)
cfi=(3)
cfn=(534) uselocale
calls=1 0 
* 22
* 1
+3 1
+6 128
-6 384
fi=(40) /usr/include/wchar.h
+48 256
cob=(3)
cfi=(3)
cfn=(538) wctob
calls=128 0 
* 2816
fe=(39)
-45 256
-6 1
fi=(40)
+45 2
cob=(3)
cfi=(3)
cfn=(540) btowc
calls=1 0 
* 27
* 510
cob=(3)
cfi=(3)
cfn=(540)
calls=255 0 
* 11365
fe=(39)
-28 256
-2 256
+1 515
+5 8
+1 8
-1 8
+1 16
cfn=(546) std::ctype<wchar_t>::_M_convert_to_wmask(unsigned short) const
calls=8 60 
* 1840
* 8
-3 8
+2 40
-2 3
+2 24
+1 4
-1 4
+1 4
cfn=(546)
calls=4 60 
* 1872
* 4
-3 8
+8 1
-2 1
+2 4
-2 1
cob=(3)
cfi=(3)
cfn=(534)
calls=1 0 
* 22
-13 2

fn=(546)
60 12
+2 69
+24 3
cob=(3)
cfi=(3)
cfn=(548) wctype_l
calls=1 -86 
* 665
-24 21
+6 3
cob=(3)
cfi=(3)
cfn=(548)
calls=1 -68 
* 425
-6 4
+36 3
cob=(3)
cfi=(3)
cfn=(548)
calls=1 -98 
* 545
-36 6
+18 3
cob=(3)
cfi=(3)
cfn=(548)
calls=1 -80 
* 217
+3 3
cob=(3)
cfi=(3)
cfn=(548)
calls=1 -83 
* 277
-9 3
cob=(3)
cfi=(3)
cfn=(548)
calls=1 -74 
* 97
-3 3
cob=(3)
cfi=(3)
cfn=(548)
calls=1 -71 
* 605
+18 3
cob=(3)
cfi=(3)
cfn=(548)
calls=1 -89 
* 213
-24 3
cob=(3)
cfi=(3)
cfn=(548)
calls=1 -65 
* 365
+39 4
-27 3
cob=(3)
cfi=(3)
cfn=(548)
calls=1 -77 
* 157

fl=(42) /build/gcc/src/gcc/libstdc++-v3/src/c++11/cow-locale_init.cc
fn=(574) std::locale::_Impl::_M_init_extra(std::locale::facet**)
100 9
fi=(22) /build/gcc/src/gcc-build/x86_64-pc-linux-gnu/libstdc++-v3/include/bits/locale_facets.h
1710 1
fe=(42)
100 1
fi=(22)
1709 1
fe=(42)
101 1
+1 1
+1 1
fi=(22)
1710 1
fi=(23)
403 1
fi=(22)
1709 3
+1 1
cfi=(43)
cfn=(576)
calls=1 92 
* 414
fi=(27) /build/gcc/src/gcc-build/x86_64-pc-linux-gnu/libstdc++-v3/include/ext/atomicity.h
95 3
fi=(23)
618 4
cfi=(29)
cfn=(506) std::locale::id::_M_id() const
calls=1 479 
* 15
* 3
+52 1
403 1
670 3
cfi=(29)
cfn=(494)
calls=1 215 
* 10
* 1
fi=(27)
95 2
fi=(23)
618 4
cfi=(29)
cfn=(506)
calls=1 479 
* 15
* 1
fi=(21) /build/gcc/src/gcc-build/x86_64-pc-linux-gnu/libstdc++-v3/include/bits/locale_facets_nonio.h
1068 1
fi=(23)
618 1
fi=(21)
1068 1
fi=(23)
618 1
fi=(21)
1067 1
+1 1
fi=(23)
403 1
fi=(21)
1067 3
+1 1
cfi=(44) /build/gcc/src/gcc-build/x86_64-pc-linux-gnu/libstdc++-v3/src/c++98/monetary_members_cow.cc
cfn=(582) std::moneypunct<char, false>::_M_initialize_moneypunct(__locale_struct*, char const*)
calls=1 372 
* 113
fi=(27)
95 2
fi=(23)
618 4
cfi=(29)
cfn=(506)
calls=1 479 
* 15
* 1
fi=(21)
1068 1
fi=(23)
618 1
fi=(21)
1068 1
fi=(23)
618 1
fi=(21)
1067 1
+1 1
fi=(23)
403 1
fi=(21)
1067 3
+1 1
cfi=(44)
cfn=(584) std::moneypunct<char, true>::_M_initialize_moneypunct(__locale_struct*, char const*)
calls=1 216 
* 113
fi=(27)
95 2
fi=(23)
618 4
cfi=(29)
cfn=(506)
calls=1 479 
* 15
* 3
fi=(21)
1490 1
fi=(23)
403 1
fi=(21)
1490 2
fi=(27)
95 2
fi=(23)
618 4
cfi=(29)
cfn=(506)
calls=1 479 
* 15
* 3
fi=(21)
1642 1
fi=(23)
403 1
fi=(21)
1642 2
fi=(27)
95 2
fi=(23)
618 4
cfi=(29)
cfn=(506)
calls=1 479 
* 15
* 3
fi=(21)
390 1
fi=(23)
+13 1
fi=(21)
-13 2
fi=(27)
95 2
fi=(23)
618 4
cfi=(29)
cfn=(506)
calls=1 479 
* 15
* 2
fe=(42)
112 2
fi=(23)
618 1
fe=(42)
112 1
cfi=(37)
cfn=(586)
calls=1 -68 
* 33
fi=(27)
-17 2
fi=(23)
618 4
cfi=(29)
cfn=(506)
calls=1 479 
* 15
* 2
fi=(22)
1710 1
fi=(23)
618 1
fe=(42)
115 1
fi=(22)
1710 1
fi=(23)
403 1
fe=(42)
114 1
+1 1
fi=(22)
1709 1
fe=(42)
114 1
+2 1
fi=(22)
1709 3
+1 1
cfi=(43)
cfn=(588)
calls=1 183 
* 350
fi=(27)
95 2
fi=(23)
618 4
cfi=(29)
cfn=(506)
calls=1 479 
* 15
* 3
+52 1
403 1
670 3
cfi=(29)
cfn=(494)
calls=1 215 
* 10
* 1
fi=(27)
95 2
fi=(23)
618 4
cfi=(29)
cfn=(506)
calls=1 479 
* 15
* 2
fi=(21)
1068 1
fi=(23)
618 1
fi=(21)
1067 1
+1 2
fi=(23)
403 1
fi=(21)
1067 4
+1 1
cfi=(44)
cfn=(590) std::moneypunct<wchar_t, false>::_M_initialize_moneypunct(__locale_struct*, char const*)
calls=1 741 
* 109
fi=(27)
95 2
fi=(23)
618 4
cfi=(29)
cfn=(506)
calls=1 479 
* 15
* 1
fi=(21)
1068 1
fi=(23)
618 1
fi=(21)
1068 1
fi=(23)
618 1
fi=(21)
1067 1
+1 1
fi=(23)
403 1
fi=(21)
1067 3
+1 1
cfi=(44)
cfn=(592) std::moneypunct<wchar_t, true>::_M_initialize_moneypunct(__locale_struct*, char const*)
calls=1 558 
* 109
fi=(27)
95 2
fi=(23)
618 4
cfi=(29)
cfn=(506)
calls=1 479 
* 15
* 3
fi=(21)
1490 1
fi=(23)
403 1
fi=(21)
1490 2
fi=(27)
95 2
fi=(23)
618 4
cfi=(29)
cfn=(506)
calls=1 479 
* 15
* 3
fi=(21)
1642 1
fi=(23)
403 1
fi=(21)
1642 2
fi=(27)
95 2
fi=(23)
618 4
cfi=(29)
cfn=(506)
calls=1 479 
* 15
* 3
fi=(21)
390 1
fi=(23)
+13 1
fi=(21)
-13 2
fi=(27)
95 2
fi=(23)
618 4
cfi=(29)
cfn=(506)
calls=1 479 
* 15
* 2
fe=(42)
125 2
fi=(23)
618 1
fe=(42)
125 1
cfi=(37)
cfn=(594)
calls=1 -81 
* 33
fi=(27)
-30 2
fi=(23)
618 3
cfi=(29)
cfn=(506)
calls=1 479 
* 15
* 1
fe=(42)
128 1
fi=(23)
618 1
fe=(42)
128 2
cfi=(29)
cfn=(506)
calls=1 479 
* 6
+1 1
-1 1
+1 2
cfi=(29)
cfn=(506)
calls=1 479 
* 6
+1 1
-1 1
+1 2
cfi=(29)
cfn=(506)
calls=1 479 
* 6
+2 1
-2 1
+2 2
cfi=(29)
cfn=(506)
calls=1 479 
* 6
* 1
+1 1
-1 1
+1 2
cfi=(29)
cfn=(506)
calls=1 479 
* 6
* 1
+1 2
-1 1
+1 1
cfi=(29)
cfn=(506)
calls=1 479 
* 6
* 1
+2 8
fi=(27)
-62 32
fe=(42)

fl=(53) /build/gcc/src/gcc/libstdc++-v3/libsupc++/dyncast.cc
fn=(620) __dynamic_cast
49 490
+1 49
fi=(57) /build/gcc/src/gcc/libstdc++-v3/libsupc++/tinfo.h
+18 98
fe=(53)
-12 49
fi=(57)
+94 147
fe=(53)
-82 49
fi=(57)
+82 49
fe=(53)
-82 98
+4 147
-1 441
cfi=(56) /build/gcc/src/gcc/libstdc++-v3/libsupc++/si_class_type_info.cc
cfn=(632) __cxxabiv1::__si_class_type_info::__do_dyncast(long, __cxxabiv1::__class_type_info::__sub_kind, __cxxabiv1::__class_type_info const*, void const*, __cxxabiv1::__class_type_info const*, void const*, __cxxabiv1::__class_type_info::__dyncast_result&) const
calls=40 -20 
* 1480
cfi=(54) /build/gcc/src/gcc/libstdc++-v3/libsupc++/vmi_class_type_info.cc
cfn=(622) __cxxabiv1::__vmi_class_type_info::__do_dyncast(long, __cxxabiv1::__class_type_info::__sub_kind, __cxxabiv1::__class_type_info const*, void const*, __cxxabiv1::__class_type_info const*, void const*, __cxxabiv1::__class_type_info::__dyncast_result&) const
calls=9 +16 
* 792
+2 294
+2 49
fi=(57)
+26 98
fe=(53)
-26 98
+20 441

fl=(64) /build/gcc/src/gcc-build/x86_64-pc-linux-gnu/libstdc++-v3/include/bits/locale_facets.tcc
fn=(964) std::ostreambuf_iterator<char, std::char_traits<char> > std::num_put<char, std::ostreambuf_iterator<char, std::char_traits<char> > >::_M_insert_float<double>(std::ostreambuf_iterator<char, std::char_traits<char> >, std::ios_base&, char, char, double) const
974 12
55 1
974 7
fi=(48) /build/gcc/src/gcc-build/x86_64-pc-linux-gnu/libstdc++-v3/include/bits/ios_base.h
782 2
fe=(64)
55 1
cfi=(29)
cfn=(506)
calls=1 479 
* 6
* 1
+1 1
+1 5
984 2
+9 4
-9 2
+9 1
cfi=(65) /build/gcc/src/gcc/libstdc++-v3/src/c++98/locale_facets.cc
cfn=(966) std::__num_base::_S_format_float(std::ios_base const&, char*, char)
calls=1 64 
* 33
fi=(48)
84 1
fe=(64)
1003 2
fi=(48)
84 1
fe=(64)
1003 1
+1 2
+1 1
cfi=(29)
cfn=(494)
calls=1 215 
* 10
* 10
cfi=(66) /build/gcc/src/gcc-build/x86_64-pc-linux-gnu/libstdc++-v3/include/x86_64-pc-linux-gnu/bits/c++locale.h
cfn=(972) std::__convert_from_v(__locale_struct* const&, char*, int, char const*, ...)
calls=1 73 
* 2608
+7 2
-7 1
+7 1
+32 2
cfi=(52) /build/gcc/src/gcc-build/x86_64-pc-linux-gnu/libstdc++-v3/include/bits/locale_classes.tcc
cfn=(628) std::ctype<char> const& std::use_facet<std::ctype<char> >(std::locale const&)
calls=1 132 
* 167
+2 1
-2 1
+2 2
+2 1
-2 3
fi=(22)
901 1
fe=(64)
1046 3
fi=(22)
901 2
1110 3
cob=(3)
cfi=(3)
cfn=(776)
calls=1 0 
* 13
* 2
fi=(67) /build/gcc/src/gcc-build/x86_64-pc-linux-gnu/libstdc++-v3/include/bits/char_traits.h
341 3
+8 5
cob=(3)
cfi=(3)
cfn=(1016) __memchr_sse2
calls=1 0 
* 21
fe=(64)
1053 3
fi=(67)
349 1
fe=(64)
1053 1
+2 1
+1 1
-1 1
+1 1
+6 2
+26 1
+1 2
fi=(48)
731 2
+1 1
fi=(63) /build/gcc/src/gcc-build/x86_64-pc-linux-gnu/libstdc++-v3/include/bits/streambuf_iterator.h
286 2
fi=(68) /build/gcc/src/gcc-build/x86_64-pc-linux-gnu/libstdc++-v3/include/streambuf
458 5
cfi=(45) /build/gcc/src/gcc-build/x86_64-pc-linux-gnu/libstdc++-v3/include/ext/stdio_sync_filebuf.h
cfn=(1020) __gnu_cxx::stdio_sync_filebuf<char, std::char_traits<char> >::xsputn(char const*, long)
calls=1 252 
* 782
fi=(63)
288 4
fe=(64)
1101 13
fi=(22)
903 3
+1 3
fe=(64)

fn=(962) std::num_put<char, std::ostreambuf_iterator<char, std::char_traits<char> > >::do_put(std::ostreambuf_iterator<char, std::char_traits<char> >, std::ios_base&, char, double) const
1157 1
+2 3
cfn=(964)
calls=1 974 
* 3777

fl=(38) /build/gcc/src/gcc/libstdc++-v3/src/c++11/ctype.cc
fn=(956) std::ctype<char>::_M_widen_init() const
90 9
+2 2
+1 1
-1 3
+1 255
-1 765
+2 5
fi=(22)
1110 32
fe=(38)
96 1
+2 4
cob=(3)
cfi=(3)
cfn=(556)
calls=1 -98 
* 112
* 2
+2 8

fn=(530) std::ctype<wchar_t>::ctype(unsigned long)
103 2
fi=(23)
403 1
fe=(38)
103 3
fi=(23)
403 3
fe=(38)
105 4
cfi=(29)
cfn=(494)
calls=1 215 
* 10
* 1
+1 1
-1 1
+1 4
cfi=(39)
cfn=(532)
calls=1 273 
* 20696

fl=(49) /build/gcc/src/gcc-build/x86_64-pc-linux-gnu/libstdc++-v3/include/ostream
fn=(1032) std::ostream::sentry::~sentry()
462 1
+3 5
+6 1

fl=(52)
fn=(618) bool std::has_facet<std::ctype<char> >(std::locale const&)
104 12
+2 8
cfi=(29)
cfn=(506)
calls=4 479 
* 24
+1 4
+3 44
cfi=(53)
cfn=(620)
calls=4 -61 
* 564
* 8
+4 12

fn=(650) std::ctype<wchar_t> const& std::use_facet<std::ctype<wchar_t> >(std::locale const&)
132 12
+2 8
cfi=(29)
cfn=(506)
calls=4 479 
* 24
+1 8
+1 20
+3 16
cfi=(53)
cfn=(620)
calls=4 -90 
* 360
* 8
+4 8

fn=(630) bool std::has_facet<std::num_put<char, std::ostreambuf_iterator<char, std::char_traits<char> > > >(std::locale const&)
104 12
+2 8
cfi=(29)
cfn=(506)
calls=4 479 
* 24
+1 4
+3 44
cfi=(53)
cfn=(620)
calls=4 -61 
* 360
* 8
+4 12

fn=(628)
132 15
+2 10
cfi=(29)
cfn=(506)
calls=5 479 
* 30
+1 10
+1 25
+3 20
cfi=(53)
cfn=(620)
calls=5 -90 
* 705
* 10
+4 10

fn=(636) std::num_put<char, std::ostreambuf_iterator<char, std::char_traits<char> > > const& std::use_facet<std::num_put<char, std::ostreambuf_iterator<char, std::char_traits<char> > > >(std::locale const&)
132 12
+2 8
cfi=(29)
cfn=(506)
calls=4 479 
* 24
+1 8
+1 20
+3 16
cfi=(53)
cfn=(620)
calls=4 -90 
* 360
* 8
+4 8

fn=(656) bool std::has_facet<std::num_get<wchar_t, std::istreambuf_iterator<wchar_t, std::char_traits<wchar_t> > > >(std::locale const&)
104 12
+2 8
cfi=(29)
cfn=(506)
calls=4 479 
* 24
+1 4
+3 44
cfi=(53)
cfn=(620)
calls=4 -61 
* 360
* 8
+4 12

fn=(658) std::num_get<wchar_t, std::istreambuf_iterator<wchar_t, std::char_traits<wchar_t> > > const& std::use_facet<std::num_get<wchar_t, std::istreambuf_iterator<wchar_t, std::char_traits<wchar_t> > > >(std::locale const&)
132 12
+2 8
cfi=(29)
cfn=(506)
calls=4 479 
* 24
+1 8
+1 20
+3 16
cfi=(53)
cfn=(620)
calls=4 -90 
* 360
* 8
+4 8

fn=(652) bool std::has_facet<std::num_put<wchar_t, std::ostreambuf_iterator<wchar_t, std::char_traits<wchar_t> > > >(std::locale const&)
104 12
+2 8
cfi=(29)
cfn=(506)
calls=4 479 
* 24
+1 4
+3 44
cfi=(53)
cfn=(620)
calls=4 -61 
* 360
* 8
+4 12

fn=(654) std::num_put<wchar_t, std::ostreambuf_iterator<wchar_t, std::char_traits<wchar_t> > > const& std::use_facet<std::num_put<wchar_t, std::ostreambuf_iterator<wchar_t, std::char_traits<wchar_t> > > >(std::locale const&)
132 12
+2 8
cfi=(29)
cfn=(506)
calls=4 479 
* 24
+1 8
+1 20
+3 16
cfi=(53)
cfn=(620)
calls=4 -90 
* 360
* 8
+4 8

fn=(638) bool std::has_facet<std::num_get<char, std::istreambuf_iterator<char, std::char_traits<char> > > >(std::locale const&)
104 12
+2 8
cfi=(29)
cfn=(506)
calls=4 479 
* 24
+1 4
+3 44
cfi=(53)
cfn=(620)
calls=4 -61 
* 360
* 8
+4 12

fn=(640) std::num_get<char, std::istreambuf_iterator<char, std::char_traits<char> > > const& std::use_facet<std::num_get<char, std::istreambuf_iterator<char, std::char_traits<char> > > >(std::locale const&)
132 12
+2 8
cfi=(29)
cfn=(506)
calls=4 479 
* 24
+1 8
+1 20
+3 16
cfi=(53)
cfn=(620)
calls=4 -90 
* 360
* 8
+4 8

fn=(648) bool std::has_facet<std::ctype<wchar_t> >(std::locale const&)
104 12
+2 8
cfi=(29)
cfn=(506)
calls=4 479 
* 24
+1 4
+3 44
cfi=(53)
cfn=(620)
calls=4 -61 
* 360
* 8
+4 12

fl=(33) /build/gcc/src/gcc-build/x86_64-pc-linux-gnu/libstdc++-v3/src/c++98/numeric_members.cc
fn=(516) std::__cxx11::numpunct<char>::_M_initialize_numpunct(__locale_struct*)
92 8
+1 2
+3 2
+36 1
+32 1
+1 1
-1 1
+3 2
+1 1
+1 6
-70 3
+1 1
+1 1
+2 1
+1 2
+3 2
-1 2
+1 3
-1 3
+1 105
-1 105
+4 2
-1 2
+1 3
-1 3
+1 75
-1 76

fn=(560) std::__cxx11::numpunct<wchar_t>::_M_initialize_numpunct(__locale_struct*)
183 8
+1 2
+3 2
+69 1
+1 1
-1 1
+3 2
+1 1
+1 6
-71 3
+4 2
+6 1
-9 1
+1 1
+8 1
-2 2
+2 2
-2 3
+2 70
-2 105
+6 2
-2 2
+2 2
-2 3
+2 50
-2 76

fl=(47) /build/gcc/src/gcc/libstdc++-v3/src/c++11/ios.cc
fn=(602) std::ios_base::ios_base()
76 8
+3 72
fi=(48)
573 16
fe=(47)
79 24
fi=(48)
573 24
fe=(47)
79 16
fi=(48)
573 168
fe=(47)
79 144
cfi=(28) /build/gcc/src/gcc/libstdc++-v3/src/c++98/locale_init.cc
cfn=(482) std::locale::locale()
calls=8 256 
* 224

fl=(29)
fn=(612) std::locale::operator=(std::locale const&)
120 48
+1 40
+2 24
+2 16
+2 32

fn=(494)
215 15
+2 15
-2 15
+2 15
+9 28
-4 60
+1 1
cfn=(496) std::locale::facet::_S_initialize_once()
calls=1 -15 
* 59
* 1
+3 2

fn=(614) std::locale::~locale()
91 8
+2 8
-2 8
+2 24
+2 16

fn=(506)
479 112
+1 336
fi=(27)
81 48
-32 48
+32 48
fe=(29)
502 96
+3 48
+1 48
-1 64
+1 64
fi=(27)
68 144
+16 48
fe=(29)

fn=(496)
208 1
+2 4
cfi=(31) /build/gcc/src/gcc-build/x86_64-pc-linux-gnu/libstdc++-v3/src/c++98/c++locale.cc
cfn=(498) std::locale::facet::_S_create_c_locale(__locale_struct*&, char const*, __locale_struct*)
calls=1 -76 
* 54

fn=(504) std::locale::_Impl::_M_install_facet(std::locale::id const*, std::locale::facet const*)
322 32
+1 64
-1 320
+3 32
cfn=(506)
calls=32 479 
* 480
* 32
+3 128
fi=(27)
95 96
fe=(29)
366 64
+1 96
+51 32
-8 32
+8 4736
+2 1536
+1 4608
fi=(27)
74 64
fe=(29)
428 256

fn=(596) std::locale::locale(std::locale::_Impl*)
88 2
+1 1

fn=(490)
230 21

fl=(15)
fn=(412)
125 1
fi=(16) /build/gcc/src/gcc-build/x86_64-pc-linux-gnu/libstdc++-v3/include/ext/bitmap_allocator.h
1109 4
107 4
1122 3
+5 3
fi=(17) /build/gcc/src/gcc-build/x86_64-pc-linux-gnu/libstdc++-v3/include/ext/concurrence.h
129 1
fi=(16)
1127 1
fi=(17)
129 13
fi=(16)
1109 4
107 4
1122 3
+5 3
fi=(17)
129 1
fi=(16)
1127 1
fi=(17)
129 13
fe=(15)
-4 1
fi=(16)
1122 1
413 3
+8 1
+1 1
+1 1
1122 1
413 3
+8 1
+1 1
+1 1
fe=(15)

fl=(54)
fn=(622)
87 180
+1 18
+1 18
+2 45
fi=(55) /build/gcc/src/gcc/libstdc++-v3/libsupc++/typeinfo
+32 36
+1 18
cob=(3)
cfi=(3)
cfn=(626) __strcmp_sse2_unaligned
calls=9 0 
* 198
-1 18
fe=(54)
-25 18
fi=(55)
+25 27
fe=(54)
-22 9
-1 9
+1 9
+1 18
+2 9
fi=(57)
-36 9
fe=(54)
+36 9
+3 9
-3 18
-1 9
302 108

fl=(31)
fn=(498)
134 3
+1 2
cob=(3)
cfi=(3)
cfn=(500) newlocale
calls=1 0 
* 44
* 1
+1 2
+6 2

fl=(50) /build/gcc/src/gcc-build/x86_64-pc-linux-gnu/libstdc++-v3/include/bits/basic_ios.tcc
fn=(644) std::basic_ios<wchar_t, std::char_traits<wchar_t> >::init(std::basic_streambuf<wchar_t, std::char_traits<wchar_t> >*)
126 24
+3 4
cfi=(51) /build/gcc/src/gcc/libstdc++-v3/src/c++98/ios_locale.cc
cfn=(610) std::ios_base::_M_init()
calls=4 -90 
* 328
+3 12
cfn=(646) std::basic_ios<wchar_t, std::char_traits<wchar_t> >::_M_cache_locale(std::locale const&)
calls=4 +25 
* 2932
+20 8
-1 4
+1 4
-6 4
+1 4
+2 4
+1 4
+2 4
+1 16

fn=(608) std::basic_ios<char, std::char_traits<char> >::init(std::basic_streambuf<char, std::char_traits<char> >*)
126 24
+3 4
cfi=(51)
cfn=(610)
calls=4 -90 
* 328
+3 12
cfn=(616) std::basic_ios<char, std::char_traits<char> >::_M_cache_locale(std::locale const&)
calls=4 +25 
* 3340
+14 4
+5 4
-5 4
+6 12
-2 4
-1 4
+3 4
+1 16

fn=(646)
157 20
+2 4
-2 4
+2 4
cfi=(52)
cfn=(648)
calls=4 -55 
* 472
* 8
+1 8
cfi=(52)
cfn=(650)
calls=4 -28 
* 464
+4 4
-4 4
+4 4
cfi=(52)
cfn=(652)
calls=4 -60 
* 472
* 8
+1 8
cfi=(52)
cfn=(654)
calls=4 -33 
* 464
+4 4
-4 4
+4 4
cfi=(52)
cfn=(656)
calls=4 -65 
* 472
* 8
+1 8
cfi=(52)
cfn=(658)
calls=4 -38 
* 464
* 4
+3 16

fn=(616)
157 20
+2 4
-2 4
+2 4
cfi=(52)
cfn=(618)
calls=4 -55 
* 676
* 8
+1 8
cfi=(52)
cfn=(628)
calls=4 -28 
* 668
+4 4
-4 4
+4 4
cfi=(52)
cfn=(630)
calls=4 -60 
* 472
* 8
+1 8
cfi=(52)
cfn=(636)
calls=4 -33 
* 464
+4 4
-4 4
+4 4
cfi=(52)
cfn=(638)
calls=4 -65 
* 472
* 8
+1 8
cfi=(52)
cfn=(640)
calls=4 -38 
* 464
* 4
+3 16

fl=(9)
fn=(1152) 0x00000000000a0110
0 5

fn=(358)
0 12

fn=(1124)
0 9
cob=(3)
cfi=(3)
cfn=(1054)
calls=1 0 
0 372
0 1
cfn=(1152)
calls=1 0 
0 5
0 3

fl=(51)
fn=(610)
39 64
+5 8
-1 8
-2 8
+1 8
+2 16
cfi=(28)
cfn=(482)
calls=8 256 
* 224
* 24
cfi=(29)
cfn=(612)
calls=8 +76 
* 160
* 16
cfi=(29)
cfn=(614)
calls=8 +47 
* 64
+1 56

fl=(20)
fn=(422)
380 1
fi=(21)
1375 8
1605 4
1762 4
fi=(22)
1883 4
fi=(21)
756 4
1968 4
fi=(23)
793 4
fe=(20)
380 1

fn=(430)
380 1
fi=(21)
1375 8
1605 4
1762 4
fi=(22)
1883 4
fi=(21)
756 4
1968 4
fi=(23)
793 4
fe=(20)
380 1

fn=(438)
380 1
fi=(21)
1375 8
1605 4
1762 4
fi=(22)
1883 4
2277 4
2557 4
fi=(21)
320 4
889 4
756 4
1968 4
fi=(23)
793 4
fe=(20)
380 1

fn=(446)
380 1
fi=(21)
1375 8
1605 4
1762 4
fi=(22)
1883 4
2277 4
2557 4
fi=(21)
320 4
889 4
756 4
1968 4
fi=(23)
793 4
fe=(20)
380 1

fl=(11)
fn=(374)
124 2
-74 1
cfi=(12) /build/gcc/src/gcc/libstdc++-v3/src/c++11/future.cc
cfn=(376) std::future_category()
calls=1 +29 
* 145
* 2
+74 2

fl=(28)
fn=(482)
256 176
+2 22
cfn=(484) std::locale::_S_initialize()
calls=22 +63 
* 38280
+11 22
+1 22
-1 44
+1 44
+6 132

fn=(484)
321 22
+2 44
+3 87
+1 1
cfn=(486) std::locale::_S_initialize_once()
calls=1 -16 
* 38126

fn=(488) std::locale::_Impl::_Impl(unsigned long)
471 14
+3 3
+2 193
+1 197
+3 52
+1 1
-1 1
+1 1
+1 1
cfi=(29)
cfn=(490)
calls=1 230 
* 3
+9 5
-9 1
+9 1
cfi=(30) /build/gcc/src/gcc-build/x86_64-pc-linux-gnu/libstdc++-v3/src/c++11/ctype_configure_char.cc
cfn=(492) std::ctype<char>::ctype(unsigned short const*, bool, unsigned long)
calls=1 121 
* 187
fi=(23)
611 4
cfi=(29)
cfn=(504)
calls=1 322 
* 394
fe=(28)
492 3
cfi=(32) /build/gcc/src/gcc/libstdc++-v3/src/c++98/codecvt.cc
cfn=(512) std::codecvt<char, char, __mbstate_t>::codecvt(unsigned long)
calls=1 38 
* 28
fi=(23)
611 4
cfi=(29)
cfn=(504)
calls=1 322 
* 394
fi=(22)
1626 2
+84 1
fi=(23)
403 1
fi=(22)
1626 1
+84 1
-84 1
fi=(23)
403 1
fi=(22)
1626 1
+83 1
-83 1
+83 1
-83 7
fi=(23)
403 1
fi=(22)
1709 2
+1 1
cfi=(33)
cfn=(516)
calls=1 92 
* 414
fi=(23)
611 4
cfi=(29)
cfn=(504)
calls=1 322 
* 394
fi=(22)
1973 1
fi=(23)
611 2
403 1
611 1
fi=(22)
1973 2
fi=(23)
611 1
cfi=(29)
cfn=(504)
calls=1 322 
* 394
fi=(22)
2314 1
fi=(23)
611 2
403 1
611 1
fi=(22)
2314 2
fi=(23)
611 1
cfi=(29)
cfn=(504)
calls=1 322 
* 394
+59 1
403 1
670 3
cfi=(29)
cfn=(494)
calls=1 215 
* 10
* 1
-59 4
cfi=(29)
cfn=(504)
calls=1 322 
* 394
fi=(21)
986 2
+82 1
fi=(23)
403 1
fi=(21)
986 1
+82 2
-82 1
fi=(23)
403 1
fi=(21)
986 1
+81 1
-81 1
+81 1
-81 11
fi=(23)
403 1
fi=(21)
1067 2
+1 1
cfi=(34) /build/gcc/src/gcc-build/x86_64-pc-linux-gnu/libstdc++-v3/src/c++98/monetary_members.cc
cfn=(520) std::__cxx11::moneypunct<char, false>::_M_initialize_moneypunct(__locale_struct*, char const*)
calls=1 372 
* 113
fi=(23)
611 4
cfi=(29)
cfn=(504)
calls=1 322 
* 394
fi=(21)
986 1
+82 2
fi=(23)
403 1
fi=(21)
986 1
+82 1
-82 1
fi=(23)
403 1
fi=(21)
986 3
+81 1
-81 1
+81 1
-81 10
fi=(23)
403 1
fi=(21)
1067 2
+1 1
cfi=(34)
cfn=(522) std::__cxx11::moneypunct<char, true>::_M_initialize_moneypunct(__locale_struct*, char const*)
calls=1 216 
* 113
fi=(23)
611 4
cfi=(29)
cfn=(504)
calls=1 322 
* 394
fi=(21)
1490 1
fi=(23)
611 2
403 1
611 1
fi=(21)
1490 2
fi=(23)
611 1
cfi=(29)
cfn=(504)
calls=1 322 
* 394
fi=(21)
1642 1
fi=(23)
611 2
403 1
611 1
fi=(21)
1642 2
fi=(23)
611 1
cfi=(29)
cfn=(504)
calls=1 322 
* 394
fi=(21)
136 1
fe=(28)
514 1
fi=(23)
403 1
fe=(28)
514 1
fi=(21)
136 1
fe=(28)
514 1
fi=(21)
136 49
fe=(28)
514 1
cfi=(35) /build/gcc/src/gcc-build/x86_64-pc-linux-gnu/libstdc++-v3/include/x86_64-pc-linux-gnu/bits/time_members.h
cfn=(524) std::__timepunct<char>::__timepunct(std::__timepunct_cache<char>*, unsigned long)
calls=1 48 
* 142
fi=(23)
+97 4
cfi=(29)
cfn=(504)
calls=1 322 
* 394
fi=(21)
390 1
fi=(23)
611 2
403 1
611 1
fi=(21)
390 2
fi=(23)
611 1
cfi=(29)
cfn=(504)
calls=1 322 
* 394
fi=(21)
819 1
fi=(23)
611 2
403 1
611 1
fi=(21)
819 2
fi=(23)
611 1
cfi=(29)
cfn=(504)
calls=1 322 
* 394
fe=(28)
-93 3
cfi=(37)
cfn=(528)
calls=1 44 
* 33
fi=(23)
+93 4
cfi=(29)
cfn=(504)
calls=1 322 
* 394
fe=(28)
-90 3
cfi=(38)
cfn=(530)
calls=1 103 
* 20726
fi=(23)
+90 4
cfi=(29)
cfn=(504)
calls=1 322 
* 394
fe=(28)
-89 3
cfi=(32)
cfn=(558) std::codecvt<wchar_t, char, __mbstate_t>::codecvt(unsigned long)
calls=1 118 
* 28
fi=(23)
+89 4
cfi=(29)
cfn=(504)
calls=1 322 
* 394
fi=(22)
1626 1
+84 1
fi=(23)
403 2
fi=(22)
1626 1
+84 1
-84 3
+83 1
-83 1
+83 1
-83 6
fi=(23)
403 1
fi=(22)
1709 2
+1 1
cfi=(33)
cfn=(560)
calls=1 183 
* 350
fi=(23)
611 4
cfi=(29)
cfn=(504)
calls=1 322 
* 394
fi=(22)
1973 1
fi=(23)
611 2
403 1
611 1
fi=(22)
1973 2
fi=(23)
611 1
cfi=(29)
cfn=(504)
calls=1 322 
* 394
fi=(22)
2314 1
fi=(23)
611 2
403 1
611 1
fi=(22)
2314 2
fi=(23)
611 1
cfi=(29)
cfn=(504)
calls=1 322 
* 394
+59 1
403 1
670 3
cfi=(29)
cfn=(494)
calls=1 215 
* 10
* 1
-59 4
cfi=(29)
cfn=(504)
calls=1 322 
* 394
fi=(21)
986 1
+82 2
fi=(23)
403 1
fi=(21)
986 1
+82 1
-82 1
fi=(23)
403 1
fi=(21)
986 1
+81 1
-81 1
+81 1
-81 11
fi=(23)
403 1
fi=(21)
1067 2
+1 1
cfi=(34)
cfn=(562) std::__cxx11::moneypunct<wchar_t, false>::_M_initialize_moneypunct(__locale_struct*, char const*)
calls=1 741 
* 109
fi=(23)
611 4
cfi=(29)
cfn=(504)
calls=1 322 
* 394
fi=(21)
986 1
+82 2
fi=(23)
403 1
fi=(21)
986 1
+82 1
-82 3
+81 1
-81 1
+81 1
-81 1
+81 2
-81 9
fi=(23)
403 1
fi=(21)
1067 1
+1 1
cfi=(34)
cfn=(564) std::__cxx11::moneypunct<wchar_t, true>::_M_initialize_moneypunct(__locale_struct*, char const*)
calls=1 558 
* 109
fi=(23)
611 4
cfi=(29)
cfn=(504)
calls=1 322 
* 394
fi=(21)
1490 1
fi=(23)
611 2
403 1
611 1
fi=(21)
1490 2
fi=(23)
611 1
cfi=(29)
cfn=(504)
calls=1 322 
* 394
fi=(21)
1642 1
fi=(23)
611 2
403 1
611 1
fi=(21)
1642 2
fi=(23)
611 1
cfi=(29)
cfn=(504)
calls=1 322 
* 394
fi=(21)
136 1
fe=(28)
544 1
fi=(23)
403 1
fe=(28)
544 1
fi=(21)
136 1
fe=(28)
544 1
fi=(21)
136 49
fe=(28)
544 1
cfi=(35)
cfn=(566) std::__timepunct<wchar_t>::__timepunct(std::__timepunct_cache<wchar_t>*, unsigned long)
calls=1 48 
* 140
fi=(23)
+67 4
cfi=(29)
cfn=(504)
calls=1 322 
* 394
fi=(21)
390 1
fi=(23)
611 2
403 1
611 1
fi=(21)
390 2
fi=(23)
611 1
cfi=(29)
cfn=(504)
calls=1 322 
* 394
fi=(21)
819 1
fi=(23)
611 2
403 1
611 1
fi=(21)
819 2
fi=(23)
611 1
cfi=(29)
cfn=(504)
calls=1 322 
* 394
fe=(28)
-63 3
cfi=(37)
cfn=(570)
calls=1 44 
* 33
fi=(23)
+63 4
cfi=(29)
cfn=(504)
calls=1 322 
* 394
fi=(41) /build/gcc/src/gcc-build/x86_64-pc-linux-gnu/libstdc++-v3/include/bits/codecvt.h
481 1
fi=(23)
611 2
403 1
611 1
fi=(41)
481 2
fi=(23)
611 1
cfi=(29)
cfn=(504)
calls=1 322 
* 394
fi=(41)
-73 1
fi=(23)
+73 2
403 1
611 1
fi=(41)
-73 2
fi=(23)
+73 1
cfi=(29)
cfn=(504)
calls=1 322 
* 394
fi=(41)
-15 1
fi=(23)
+15 2
403 1
611 1
fi=(41)
-15 2
fi=(23)
+15 1
cfi=(29)
cfn=(504)
calls=1 322 
* 394
fi=(41)
+42 1
fi=(23)
-42 2
403 1
611 1
fi=(41)
+42 2
fi=(23)
-42 1
cfi=(29)
cfn=(504)
calls=1 322 
* 394
fe=(28)
-44 2
+2 2
-2 5
+2 1
cfi=(42)
cfn=(574)
calls=1 100 
* 1892
+5 4
cfi=(29)
cfn=(506)
calls=1 -95 
* 6
* 1
+1 1
-1 1
+1 2
cfi=(29)
cfn=(506)
calls=1 -96 
* 6
+1 1
-1 1
+1 2
cfi=(29)
cfn=(506)
calls=1 -97 
* 6
+1 1
-1 1
+1 2
cfi=(29)
cfn=(506)
calls=1 -98 
* 6
* 1
+2 1
-2 1
+2 2
cfi=(29)
cfn=(506)
calls=1 479 
* 6
+1 1
-1 1
+1 2
cfi=(29)
cfn=(506)
calls=1 479 
* 6
+1 1
-1 1
+1 2
cfi=(29)
cfn=(506)
calls=1 479 
* 6
* 1
+1 2
-1 1
+1 1
cfi=(29)
cfn=(506)
calls=1 479 
* 6
* 2
+2 11

fn=(486)
311 2
+3 3
cfn=(488)
calls=1 471 
* 38110
* 2
+2 1
-2 1
+1 2
+2 1
-1 1
cfi=(29)
cfn=(596)
calls=1 88 
* 3

fl=(44)
fn=(584)
216 10
+1 2
+3 2
+3 1
+2 1
-2 1
+1 2
+1 2
+3 1
+2 1
+2 1
+3 1
-9 1
+9 1
-8 1
+2 1
+2 1
+2 1
+1 1
+1 1
+1 2
+3 2
-1 2
+1 3
-1 3
+1 30
-1 30
366 8

fn=(582)
372 10
+1 2
+3 2
+3 1
+2 1
-2 1
+1 2
+1 2
+3 1
+2 1
+2 1
+3 1
-9 1
+9 1
-8 1
+2 1
+2 1
+2 1
+1 1
+1 1
+1 2
+3 2
-1 2
+1 3
-1 3
+1 30
-1 30
517 8

fn=(590)
741 13
+1 2
+3 2
914 11
748 1
+5 1
-5 1
+5 1
+2 1
+2 1
+3 1
-12 1
+2 1
+10 1
-10 1
+1 1
+9 1
-8 1
+2 1
+2 1
+2 1
+1 1
+2 2
+5 1
-1 1
+1 1
-2 2
+2 2
-2 3
+2 20
-2 31

fn=(592)
558 13
+1 2
+3 2
731 11
565 1
+5 1
-5 1
+5 1
+2 1
+2 1
+3 1
-12 1
+2 1
+10 1
-10 1
+1 1
+9 1
-8 1
+2 1
+2 1
+2 1
+1 1
+2 2
+5 1
-1 1
+1 1
-2 2
+2 2
-2 3
+2 20
-2 31

fl=(14)
fn=(382)
338 1
fi=(17)
129 1
fe=(14)
338 1
123 1
fi=(17)
+6 1
fe=(14)
-8 1
fi=(17)
+8 2
fe=(14)
-6 1
cob=(3)
cfi=(3)
cfn=(384)
calls=1 0 
* 73217
* 1
+1 2
+9 1
+2 1
+1 1
338 2

fl=(35)
fn=(524)
48 2
fi=(23)
403 1
fe=(35)
48 3
fi=(23)
403 1
fe=(35)
50 1
fi=(23)
403 1
fe=(35)
50 1
fi=(23)
403 1
fe=(35)
50 4
cfi=(29)
cfn=(490)
calls=1 230 
* 3
+1 2
-1 1
+1 1
cfi=(36) /build/gcc/src/gcc-build/x86_64-pc-linux-gnu/libstdc++-v3/src/c++98/time_members.cc
cfn=(526) std::__timepunct<char>::_M_initialize_timepunct(__locale_struct*)
calls=1 +15 
* 116
* 4

fn=(566)
48 2
fi=(23)
403 1
fe=(35)
48 3
fi=(23)
403 1
fe=(35)
50 1
fi=(23)
403 1
fe=(35)
50 1
fi=(23)
403 1
fe=(35)
50 4
cfi=(29)
cfn=(490)
calls=1 230 
* 3
+1 2
-1 1
+1 1
cfi=(36)
cfn=(568) std::__timepunct<wchar_t>::_M_initialize_timepunct(__locale_struct*)
calls=1 222 
* 114
* 4

fl=(12)
fn=(376)
79 1
-14 3
+14 1
-14 2
cfi=(13) /build/gcc/src/gcc/libstdc++-v3/libsupc++/guard.cc
cfn=(378) __cxa_guard_acquire
calls=1 244 
* 33
* 4
cfi=(13)
cfn=(380) __cxa_guard_release
calls=1 389 
* 15
* 4
cob=(3)
cfi=(3)
cfn=(368)
calls=1 -65 
* 79
+14 3

fn=(1142) (anonymous namespace)::future_error_category::~future_error_category()
30 4
cfi=(69)
cfn=(1138)
calls=1 +44 
* 2

fl=(60)
fn=(710)
43 135
+7 54
cob=(3)
cfi=(3)
cfn=(384)
calls=27 -50 
* 4724
* 54
+9 54

fl=(10)
fn=(364)
256 2
-42 2
-30 2
cfn=(366) std::error_category::error_category()
calls=1 -48 
* 5
+30 1
-30 1
+31 1
-1 2
-30 1
+30 1
cob=(3)
cfi=(3)
cfn=(368)
calls=1 0 
* 75
-15 1
+16 1
-16 1
cfn=(366)
calls=1 -63 
* 5
* 1
+16 1
+41 1
-57 1
+16 3
cob=(3)
cfi=(3)
cfn=(368)
calls=1 0 
* 79

fn=(1146) std::error_category::~error_category()
136 4

fn=(366)
136 10

fn=(1144) std::(anonymous namespace)::system_error_category::~system_error_category()
199 4
cfn=(1146)
calls=1 -63 
* 2

fn=(1148) std::(anonymous namespace)::generic_error_category::~generic_error_category()
184 4
cfn=(1146)
calls=1 -48 
* 2

fl=(24)
fn=(1130) std::pmr::(anonymous namespace)::constant_init<std::atomic<std::pmr::memory_resource*> >::~constant_init()
89 2

fn=(454)
1402 2
92 4
cob=(3)
cfi=(3)
cfn=(368)
calls=1 -92 
* 79
+1 4
cob=(3)
cfi=(3)
cfn=(368)
calls=1 -93 
* 79
+53 2
1402 1
146 2
cob=(3)
cfi=(3)
cfn=(368)
calls=1 0 
* 79

fn=(1134) std::pmr::(anonymous namespace)::constant_init<std::pmr::(anonymous namespace)::newdel_res_t>::~constant_init()
89 2

fn=(1132) std::pmr::(anonymous namespace)::constant_init<std::pmr::(anonymous namespace)::null_res_t>::~constant_init()
89 2

fl=(69)
fn=(1138)
74 6

fl=(66)
fn=(972)
73 24
+2 2
cob=(3)
cfi=(3)
cfn=(534)
calls=1 -75 
* 22
+17 3
-17 1
+14 1
+3 1
-3 5
+3 1
cob=(3)
cfi=(3)
cfn=(974) vsnprintf
calls=1 -92 
* 2513
+8 1
-8 1
+8 1
cob=(3)
cfi=(3)
cfn=(534)
calls=1 0 
* 22
+9 10

fl=(62) /build/gcc/src/gcc-build/x86_64-pc-linux-gnu/libstdc++-v3/include/bits/ostream.tcc
fn=(948) std::ostream& std::ostream::_M_insert<double>(double)
63 2
+3 1
-3 7
+3 1
-3 3
+3 2
cfn=(950) std::ostream::sentry::sentry(std::ostream&)
calls=1 -20 
* 22
+1 2
+5 4
fi=(46) /build/gcc/src/gcc-build/x86_64-pc-linux-gnu/libstdc++-v3/include/bits/basic_ios.h
-23 2
372 2
fi=(63)
246 1
fi=(22)
2438 5
fi=(63)
246 2
fi=(22)
2438 1
cfi=(64)
cfn=(962)
calls=1 1157 
* 3781
fe=(62)
73 2
-7 2
cfi=(49)
cfn=(1032)
calls=1 462 
* 7
+21 11
fi=(46)
450 1
49 2
fi=(22)
874 2
fi=(46)
374 2
+1 4
fi=(22)
876 2
cfi=(38)
cfn=(956)
calls=1 90 
* 1199
+1 6
fe=(62)

fn=(950)
46 6
+5 1
-3 2
+3 3
fi=(46)
295 1
fe=(62)
51 2
+3 2
+1 1
+3 4

fn=(1108) std::basic_ostream<wchar_t, std::char_traits<wchar_t> >::flush()
210 6
+9 3
-9 3
+9 12
fi=(68)
+59 6
cfi=(45)
cfn=(1112) __gnu_cxx::stdio_sync_filebuf<wchar_t, std::char_traits<wchar_t> >::sync()
calls=3 -88 
* 222
fe=(62)
-59 6
+13 9

fn=(1092) std::ostream::flush()
210 6
+9 3
-9 3
+9 12
fi=(68)
+59 6
cfi=(45)
cfn=(1096) __gnu_cxx::stdio_sync_filebuf<char, std::char_traits<char> >::sync()
calls=3 -88 
* 346
fe=(62)
-59 6
+13 9

fl=(18)
fn=(418)
42 1
fi=(70) /build/gcc/src/gcc-build/x86_64-pc-linux-gnu/libstdc++-v3/include/parallel/settings.h
338 50
fe=(18)
42 1

fl=(32)
fn=(512)
38 2
fi=(23)
403 1
fe=(32)
38 3
fi=(23)
403 3
fe=(32)
41 4
cfi=(29)
cfn=(494)
calls=1 215 
* 10
* 1
+1 4

fn=(558)
118 2
fi=(23)
403 1
fe=(32)
118 3
fi=(23)
403 3
fe=(32)
121 4
cfi=(29)
cfn=(494)
calls=1 +94 
* 10
* 1
+1 4

fl=(56)
fn=(632)
51 480
+1 80
-1 80
fi=(55)
+72 80
fe=(56)
-69 40
+1 40
+1 80
fi=(57)
+12 40
fe=(56)
-10 160
-1 40
+15 360

fl=(36)
fn=(568)
222 4
+1 1
-1 1
+1 1
+3 2
+3 1
cfi=(29)
cfn=(494)
calls=1 -14 
* 10
+8 1
-6 1
-2 1
+2 1
+6 1
+1 2
+4 2
+1 2
+1 2
+1 2
+1 2
+1 2
+1 2
+3 2
+1 2
+1 2
+1 2
+1 2
+1 2
+1 2
+3 2
+1 2
+1 2
+1 1
-32 1
+1 1
+1 1
+30 1
+2 1
-32 1
+1 1
+1 1
+30 1
+1 1
-31 1
+1 1
+3 1
+25 1
+2 1
+1 1
-3 1
+3 1
+1 2
+1 2
+1 2
+1 2
+3 2
+1 2
+1 2
+1 2
+2 2
+1 2
+1 2
+1 2
+1 2
+1 2
+1 1
-7 1
+7 1
396 3

fn=(526)
66 5
+1 1
-1 1
+1 1
+3 2
+3 1
cfi=(29)
cfn=(494)
calls=1 215 
* 10
+8 1
-6 1
-2 1
+2 1
+6 1
+1 2
+4 2
+1 2
+1 2
+1 2
+1 2
+1 1
-16 1
+1 1
+1 1
+14 1
+4 1
-18 1
+1 1
+1 1
+16 1
+2 1
-18 1
+1 1
+3 1
+9 1
+5 1
+2 1
-7 1
+4 1
+3 1
+2 1
-5 1
+2 1
+3 1
+4 1
-7 1
+2 1
+5 1
+2 1
-7 1
+4 1
+3 1
+2 1
-5 1
+2 1
+3 1
+1 1
-4 1
+2 1
+2 1
+1 1
-3 1
+3 1
+1 2
+1 1
+9 1
+1 1
-10 1
+1 1
+9 1
+1 1
-10 1
+1 1
+9 1
+1 1
-10 1
+3 1
+7 1
+1 1
-8 1
+1 1
+7 1
+1 1
-8 1
+1 1
+7 1
+1 1
-8 1
+1 1
+7 1
+1 1
-8 1
+8 1
+63 4

fl=(34)
fn=(562)
741 13
+1 2
+3 2
914 11
748 1
+5 1
-5 1
+5 1
+2 1
+2 1
+3 1
-12 1
+2 1
+10 1
-10 1
+1 1
+9 1
-8 1
+2 1
+2 1
+2 1
+1 1
+2 2
+5 1
-1 1
+1 1
-2 2
+2 2
-2 3
+2 20
-2 31

fn=(564)
558 13
+1 2
+3 2
731 11
565 1
+5 1
-5 1
+5 1
+2 1
+2 1
+3 1
-12 1
+2 1
+10 1
-10 1
+1 1
+9 1
-8 1
+2 1
+2 1
+2 1
+1 1
+2 2
+5 1
-1 1
+1 1
-2 2
+2 2
-2 3
+2 20
-2 31

fn=(522)
216 10
+1 2
+3 2
+3 1
+2 1
-2 1
+1 2
+1 2
+3 1
+2 1
+2 1
+3 1
-9 1
+9 1
-8 1
+2 1
+2 1
+2 1
+1 1
+1 1
+1 2
+3 2
-1 2
+1 3
-1 3
+1 30
-1 30
366 8

fn=(520)
372 10
+1 2
+3 2
+3 1
+2 1
-2 1
+1 2
+1 2
+3 1
+2 1
+2 1
+3 1
-9 1
+9 1
-8 1
+2 1
+2 1
+2 1
+1 1
+1 1
+1 2
+3 2
-1 2
+1 3
-1 3
+1 30
-1 30
517 8

fl=(26)
fn=(1042) std::ios_base::Init::~Init()
123 3
fi=(27)
-42 3
-32 3
+32 3
fe=(26)
+46 2
fi=(27)
-60 3
+1 6
fe=(26)
+59 6
-4 1
+11 2
cfi=(62)
cfn=(1092)
calls=1 +76 
* 213
+1 2
cfi=(62)
cfn=(1092)
calls=1 +75 
* 89
+1 2
cfi=(62)
cfn=(1092)
calls=1 +74 
* 89
+3 2
cfi=(62)
cfn=(1108)
calls=1 +71 
* 89
+1 2
cfi=(62)
cfn=(1108)
calls=1 +70 
* 89
+1 2
cfi=(62)
cfn=(1108)
calls=1 +69 
* 89
+6 2

fn=(478)
78 24
fi=(27)
+3 3
-32 3
+32 3
fe=(26)
+40 16
fi=(27)
-54 3
+1 6
fe=(26)
+12 6
+3 1
fi=(68)
473 3
fe=(26)
83 1
+2 1
fi=(68)
473 2
fe=(26)
85 1
fi=(68)
473 6
cfi=(28)
cfn=(482)
calls=1 256 
* 38154
fi=(45)
80 2
fi=(68)
473 2
fi=(45)
80 2
fe=(26)
+6 1
fi=(45)
-6 1
fi=(68)
473 1
fe=(26)
86 1
fi=(68)
473 6
cfi=(28)
cfn=(482)
calls=1 256 
* 28
fe=(26)
87 1
fi=(45)
-7 1
fi=(68)
473 2
fe=(26)
87 1
fi=(45)
-7 2
fi=(68)
473 7
cfi=(28)
cfn=(482)
calls=1 256 
* 28
fi=(46)
-11 1
fi=(45)
80 3
fi=(46)
462 2
cfi=(47)
cfn=(602)
calls=1 76 
* 87
fi=(49)
85 1
fi=(46)
462 1
fi=(49)
85 1
fi=(46)
462 1
fi=(49)
85 1
fi=(46)
462 1
fi=(49)
85 3
fi=(46)
462 4
fi=(49)
85 2
cfi=(50)
cfn=(608)
calls=1 +41 
* 940
fi=(46)
462 3
cfi=(47)
cfn=(602)
calls=1 76 
* 87
fi=(58) /build/gcc/src/gcc-build/x86_64-pc-linux-gnu/libstdc++-v3/include/istream
94 1
fi=(46)
462 3
fi=(58)
95 2
fi=(46)
462 1
fi=(58)
94 2
fi=(46)
462 3
fi=(58)
94 3
+1 1
cfi=(50)
cfn=(608)
calls=1 +31 
* 940
fi=(46)
462 3
cfi=(47)
cfn=(602)
calls=1 76 
* 87
fi=(49)
85 1
fi=(46)
462 1
fi=(49)
85 4
fi=(46)
462 6
fi=(49)
85 2
cfi=(50)
cfn=(608)
calls=1 +41 
* 940
fi=(46)
462 3
cfi=(47)
cfn=(602)
calls=1 76 
* 87
* 1
fi=(49)
85 1
fi=(46)
462 2
fi=(49)
85 4
fi=(46)
462 4
fi=(49)
85 2
cfi=(50)
cfn=(608)
calls=1 +41 
* 940
fe=(26)
+17 1
fi=(46)
310 1
fi=(68)
473 1
fi=(46)
310 1
fe=(26)
102 1
fi=(68)
473 2
fi=(48)
100 1
fi=(68)
473 8
cfi=(28)
cfn=(482)
calls=1 256 
* 28
fi=(45)
80 2
fi=(68)
473 2
fi=(45)
80 2
fe=(26)
+23 1
fi=(45)
-23 1
fi=(68)
473 1
fe=(26)
103 1
fi=(68)
473 6
cfi=(28)
cfn=(482)
calls=1 256 
* 28
fe=(26)
104 1
fi=(45)
-24 1
fi=(68)
473 2
fe=(26)
104 1
fi=(45)
-24 2
fi=(68)
473 7
cfi=(28)
cfn=(482)
calls=1 256 
* 28
fi=(46)
-11 1
fi=(45)
80 3
fi=(46)
462 2
cfi=(47)
cfn=(602)
calls=1 76 
* 87
fi=(49)
85 1
fi=(46)
462 1
fi=(49)
85 1
fi=(46)
462 1
fi=(49)
85 1
fi=(46)
462 1
fi=(49)
85 3
fi=(46)
462 4
fi=(49)
85 2
cfi=(50)
cfn=(644)
calls=1 +41 
* 838
fi=(46)
462 3
cfi=(47)
cfn=(602)
calls=1 76 
* 87
fi=(58)
94 1
+1 1
fi=(46)
462 2
fi=(58)
95 1
fi=(46)
462 1
fi=(58)
94 2
fi=(46)
462 4
fi=(58)
94 3
+1 1
cfi=(50)
cfn=(644)
calls=1 +31 
* 838
fi=(46)
462 3
cfi=(47)
cfn=(602)
calls=1 76 
* 87
fi=(49)
85 1
fi=(46)
462 1
fi=(49)
85 4
fi=(46)
462 6
fi=(49)
85 2
cfi=(50)
cfn=(644)
calls=1 +41 
* 838
fi=(46)
462 3
cfi=(47)
cfn=(602)
calls=1 76 
* 87
fi=(49)
85 2
fi=(46)
462 1
fi=(49)
85 3
fi=(46)
462 6
fi=(49)
85 2
cfi=(50)
cfn=(644)
calls=1 +41 
* 838
fi=(48)
+15 1
fi=(27)
-5 1
fi=(46)
310 2
fi=(27)
95 1
-21 1
fe=(26)
+47 8

fl=(45)
fn=(1020)
252 6
cob=(3)
cfi=(3)
cfn=(1022) fwrite
calls=1 0 
* 776

fn=(1112)
190 3
+1 6
cob=(3)
cfi=(3)
cfn=(1098) fflush
calls=3 0 
* 213

fn=(1096)
190 3
+1 6
cob=(3)
cfi=(3)
cfn=(1098)
calls=3 0 
* 337

fl=(30)
fn=(492)
121 1
fi=(23)
403 2
fe=(30)
121 2
fi=(23)
403 1
fe=(30)
121 4
fi=(23)
403 1
fe=(30)
127 3
-5 1
cfi=(29)
cfn=(494)
calls=1 +93 
* 71
+1 1
+4 1
-4 3
+1 1
+3 1
-2 1
+2 1
-1 2
+3 3
-2 1
+2 2
-2 1
+2 1
-2 1
+2 36
+1 39
+1 4
-5 2

fl=(61)
fn=(800)
48 24
+1 24
cob=(3)
cfi=(3)
cfn=(802) free
calls=24 -49 
* 2528

fl=(13)
fn=(380)
389 5
+4 2
+33 5
213 1
-77 1
+2 1

fn=(378)
244 10
120 1
249 2
+6 3
-16 1
346 10
232 2
+3 2
-22 2

fl=(65)
fn=(966)
64 1
+1 1
+1 2
+2 2
+2 2
fi=(48)
+14 2
fe=(65)
-7 2
+4 1
+1 1
-1 1
+4 2
+3 3
+2 4
+3 2
+4 5
+1 1
+1 1

ob=(3)
fl=(3)
fn=(320)
0 12

fn=(672) (below main)
0 23
cfn=(368)
calls=1 0 
0 79
0 11
cob=(9)
cfi=(59)
cfn=(674) __libc_csu_init
calls=1 0 
0 2167
0 8
cfn=(698) _setjmp
calls=1 0 
0 33
0 15
cob=(9)
cfi=(59)
cfn=(704) main
calls=1 0 
0 3589043
0 2
cfn=(1034) exit
calls=1 0 
0 5112

fn=(746) _IO_file_underflow@@GLIBC_2.2.5
0 166
cfn=(760) _IO_switch_to_get_mode
calls=6 0 
0 150
0 96
cfn=(762) _IO_file_read
calls=6 0 
0 84
0 104
cfn=(748) _IO_doallocbuf
calls=1 0 
0 306
0 4

fn=(768) __strtod_internal
0 4000
cfn=(770) ____strtod_l_internal
calls=1000 0 
0 1235948

fn=(770)
0 23000
cob=(2)
cfi=(2)
cfn=(550)
calls=1000 0 
0 19000
0 375859
cob=(2)
cfi=(2)
cfn=(774)
calls=1000 0 
0 13000
0 44066
cfn=(780) __mpn_mul
calls=2003 0 
0 132198
0 42029
cfn=(772) str_to_mpn.isra.0
calls=1000 0 
0 206236
0 30000
cfn=(772)
calls=1000 0 
0 72408
0 27000
cob=(2)
cfi=(2)
cfn=(774)
calls=1000 0 
0 13000
0 23000
cfn=(784) __mpn_lshift
calls=1000 0 
0 16000
0 5000
cfn=(784)
calls=1000 0 
0 16000
0 38000
cfn=(784)
calls=1000 0 
0 16000
0 20000
cfn=(786) round_and_return
calls=1000 0 
0 101347
0 1380
cob=(2)
cfi=(2)
cfn=(774)
calls=95 0 
0 1235
0 190

fn=(772)
0 278644

fn=(988)
0 42

fn=(994) __printf_fp_l
0 117
cob=(2)
cfi=(2)
cfn=(774)
calls=1 0 
0 13
0 146
cfn=(780)
calls=1 0 
0 78
0 9
cob=(2)
cfi=(2)
cfn=(774)
calls=1 0 
0 13
0 43
cfn=(996) __mpn_extract_double
calls=1 0 
0 20
0 50
cfn=(1002) __libc_alloca_cutoff
calls=1 0 
0 11
0 26
cfn=(1004) hack_digit
calls=1 0 
0 120
0 6
cfn=(1004)
calls=2 0 
0 235
0 48
cfn=(1004)
calls=3 0 
0 352
0 29
cfn=(1004)
calls=1 0 
0 120
0 83
cfn=(998) __mpn_cmp
calls=2 0 
0 24
0 38
cob=(2)
cfi=(2)
cfn=(550)
calls=1 0 
0 19
0 95
cob=(2)
cfi=(2)
cfn=(1008)
calls=1 0 
0 18
0 141
cfn=(784)
calls=1 0 
0 16
0 42
cfn=(1000) __mpn_rshift
calls=1 0 
0 18
0 8
cfn=(1000)
calls=1 0 
0 18
0 6

fn=(1000)
0 36

fn=(1024) _IO_file_xsputn@@GLIBC_2.2.5
0 43
cfn=(1026) _IO_file_overflow@@GLIBC_2.2.5
calls=1 0 
0 233
0 20
cfn=(990) _IO_default_xsputn
calls=1 0 
0 405
0 3

fn=(1192) _IO_cleanup
0 13
cfn=(1194) _IO_flush_all_lockp
calls=1 0 
0 114
0 106
cfn=(1196) _IO_file_setbuf@@GLIBC_2.2.5
calls=2 0 
0 170
0 90

fn=(178)
0 6

fn=(238)
0 22

fn=(316)
0 55

fn=(548)
0 120
cob=(2)
cfi=(2)
cfn=(550)
calls=10 0 
0 190
0 328
cob=(2)
cfi=(2)
cfn=(550)
calls=48 0 
0 912
0 20
cob=(2)
cfi=(2)
cfn=(550)
calls=10 0 
0 190
0 370
cob=(2)
cfi=(2)
cfn=(554)
calls=49 0 
0 1238
0 198

fn=(556)
0 1252

fn=(626)
0 198

fn=(742) __uflow
0 186
cfn=(744) _IO_default_uflow
calls=6 0 
0 1056
0 24

fn=(750) _IO_file_doallocate
0 46
cfn=(752) _IO_file_stat
calls=2 0 
0 32
0 24
cob=(2)
cfi=(2)
cfn=(756)
calls=2 0 
0 229
0 14
cfn=(758) _IO_setb
calls=2 0 
0 56
0 30

fn=(762)
0 36
cfn=(764) read
calls=6 0 
0 48

fn=(764)
0 48

fn=(786)
0 47449
cfn=(790) __mpn_construct_double
calls=1000 0 
0 16000
0 16000
cfn=(788) round_away
calls=1000 0 
0 12000
0 9898

fn=(790)
0 16000

fn=(806) unlink_chunk.isra.0
0 197

fn=(1010)
0 16

fn=(1028) _IO_do_write@@GLIBC_2.2.5
0 11
cfn=(1102) new_do_write
calls=1 0 
0 102
0 6

fn=(1036) __run_exit_handlers
0 456
cob=(1)
cfi=(1)
cfn=(1046)
calls=1 0 
0 3913
cob=(7)
cfi=(26)
cfn=(1042)
calls=1 123 
0 10
cob=(9)
cfi=(59)
cfn=(1040) __tcf_0
calls=1 0 
0 180
0 29
cfn=(1192)
calls=1 0 
0 493
0 5
cfn=(1200) _Exit
calls=1 0 
0 6
0 1
cfn=(1038) __call_tls_dtors
calls=1 0 
0 12
0 1

fn=(1104) _IO_file_write@@GLIBC_2.2.5
0 14
cfn=(1106) write
calls=1 0 
0 9
0 23

fn=(182)
0 10

fn=(188)
0 20

fn=(200)
0 20

fn=(230)
0 20

fn=(372) __new_exitfn
0 536

fn=(400) tcache_init.part.0
0 13
cfn=(402) _int_malloc
calls=1 0 
0 363
0 101

fn=(406) __default_morecore
0 9
cfn=(408) sbrk
calls=3 0 
0 113
0 15

fn=(748)
0 40
cfn=(750)
calls=2 0 
0 431
0 12

fn=(780)
0 76152
cfn=(782) __mpn_mul_1
calls=2004 0 
0 42096
0 14028

fn=(978) _IO_no_init
0 11
cfn=(980) _IO_old_init
calls=1 0 
0 26
0 12

fn=(1038)
0 12

fn=(192)
0 22

fn=(210)
0 63

fn=(222)
0 30

fn=(232)
0 7

fn=(234)
0 12

fn=(310)
0 13
cfn=(312) __init_misc
calls=1 0 
0 82
0 3
cfn=(318) __ctype_init
calls=1 0 
0 17
0 6

fn=(758)
0 84

fn=(1004)
0 119
cfn=(782)
calls=7 0 
0 147
0 128
cfn=(1006) __mpn_divrem
calls=7 0 
0 314
0 119

fn=(1006)
0 314

fn=(1194)
0 114

fn=(194)
0 15

fn=(236)
0 12

fn=(322)
0 60
cfn=(324) handle_intel.constprop.0
calls=1 0 
0 457
0 3
cfn=(324)
calls=1 0 
0 495
0 3
cfn=(324)
calls=1 0 
0 520
0 180

fn=(368)
0 45
cfn=(370) __internal_atexit
calls=15 0 
0 1136

fn=(370)
0 300
cfn=(372)
calls=15 0 
0 536
0 300

fn=(384)
0 744
cfn=(402)
calls=21 0 
0 3657
0 562
cfn=(386) malloc_hook_ini
calls=1 0 
0 73203

fn=(385) malloc'2
0 25
cfn=(402)
calls=1 0 
0 146
0 21
cfn=(400)
calls=1 0 
0 477
0 2

fn=(388) ptmalloc_init.part.0
0 13
cfn=(396) malloc_init_state
calls=1 0 
0 647
0 4
cob=(2)
cfi=(2)
cfn=(398)
calls=1 0 
0 21
0 4
cob=(2)
cfi=(2)
cfn=(398)
calls=1 0 
0 22
0 4
cob=(2)
cfi=(2)
cfn=(398)
calls=1 0 
0 21
0 4
cob=(2)
cfi=(2)
cfn=(398)
calls=1 0 
0 22
0 4
cob=(2)
cfi=(2)
cfn=(398)
calls=1 0 
0 22
0 4
cob=(2)
cfi=(2)
cfn=(398)
calls=1 0 
0 21
0 4
cob=(2)
cfi=(2)
cfn=(398)
calls=1 0 
0 22
0 4
cob=(2)
cfi=(2)
cfn=(398)
calls=1 0 
0 22
0 4
cob=(2)
cfi=(2)
cfn=(398)
calls=1 0 
0 22
0 4
cob=(2)
cfi=(2)
cfn=(398)
calls=1 0 
0 22
0 4
cob=(2)
cfi=(2)
cfn=(398)
calls=1 0 
0 22
0 4
cob=(2)
cfi=(2)
cfn=(398)
calls=1 0 
0 22
0 16
cfn=(390) _dl_addr
calls=1 0 
0 71529
0 6

fn=(402)
0 3339
cfn=(806)
calls=1 0 
0 31
0 42
cfn=(404) sysmalloc
calls=2 0 
0 400
0 354

fn=(538)
0 2816

fn=(740) __vfscanf_internal
0 227185
cfn=(766) _IO_sputbackc
calls=1000 0 
0 19000
0 10006
cfn=(742)
calls=3 0 
0 789
0 562242
cfn=(742)
calls=3 0 
0 477
0 64009
cfn=(768)
calls=1000 0 
0 1239948
0 29000
cfn=(766)
calls=1000 0 
0 19000
0 16000

fn=(776)
0 31686

fn=(782)
0 42243

fn=(974)
0 3
cfn=(976) __vsnprintf_internal
calls=1 0 
0 2510

fn=(1016)
0 21

fn=(1022)
0 47
cfn=(1024)
calls=1 0 
0 704
0 25

fn=(1054)
0 798
cob=(7)
cfi=(10)
cfn=(1148)
calls=1 184 
0 6
cob=(7)
cfi=(10)
cfn=(1144)
calls=1 199 
0 6
cob=(7)
cfi=(12)
cfn=(1142)
calls=1 30 
0 6
cob=(7)
cfi=(19)
cfn=(1140)
calls=1 39 
0 6
cob=(7)
cfi=(19)
cfn=(1136)
calls=1 55 
0 6
cob=(7)
cfi=(24)
cfn=(1134)
calls=1 89 
0 2
cob=(7)
cfi=(24)
cfn=(1132)
calls=1 89 
0 2
cob=(7)
cfi=(24)
cfn=(1130)
calls=1 89 
0 2
cob=(8)
cfi=(25)
cfn=(1090)
calls=1 0 
0 180
cob=(7)
cfi=(26)
cfn=(1042)
calls=2 123 
0 692
cob=(8)
cfi=(25)
cfn=(1090)
calls=1 0 
0 180
0 247
cfn=(1056) __unregister_atfork
calls=6 0 
0 102
0 72

fn=(184)
0 10

fn=(202)
0 20

fn=(208)
0 12

fn=(216)
0 7

fn=(240)
0 10

fn=(326) intel_check_word.isra.0
0 1295

fn=(390)
0 16
cob=(1)
cfi=(1)
cfn=(38)
calls=1 0 
0 3
0 2
cob=(2)
cfi=(2)
cfn=(392)
calls=1 0 
0 74
0 69411
cob=(1)
cfi=(1)
cfn=(40)
calls=1 0 
0 3
0 2020

fn=(408)
0 58
cfn=(410) brk
calls=1 0 
0 11
0 8
cfn=(410)
calls=2 0 
0 22
0 14

fn=(410)
0 33

fn=(542) _dl_mcount_wrapper_check
0 768

fn=(702) __sigjmp_save
0 9

fn=(738) __isoc99_scanf
0 25025
cfn=(740)
calls=1001 0 
0 2187656
0 5005

fn=(754) _fxstat
0 22

fn=(760)
0 150

fn=(766)
0 38000

fn=(984) __vfprintf_internal
0 37
cob=(2)
cfi=(2)
cfn=(986)
calls=1 0 
0 23
0 22
cfn=(990)
calls=1 0 
0 20
0 80
cob=(2)
cfi=(2)
cfn=(986)
calls=1 0 
0 23
0 15
cfn=(990)
calls=1 0 
0 20
0 101
cfn=(992) __printf_fp
calls=1 0 
0 1969
0 30

fn=(1034)
0 6
cfn=(1036)
calls=1 0 
0 5106

fn=(1198) _IO_default_setbuf
0 38
cfn=(1100) _IO_file_sync@@GLIBC_2.2.5
calls=2 0 
0 36
0 64

fn=(204)
0 7

fn=(212)
0 13

fn=(218)
0 7

fn=(220)
0 26

fn=(224)
0 10

fn=(312)
0 13
cob=(2)
cfi=(2)
cfn=(314)
calls=1 0 
0 57
0 12

fn=(500)
0 44

fn=(698)
0 3
cfn=(700) __sigsetjmp
calls=1 0 
0 30

fn=(700)
0 21
cfn=(702)
calls=1 0 
0 9

fn=(744)
0 90
cfn=(746)
calls=6 0 
0 910
0 56

fn=(976)
0 28
cfn=(978)
calls=1 0 
0 49
0 8
cfn=(982) _IO_str_init_static_internal
calls=1 0 
0 64
0 5
cfn=(984)
calls=1 0 
0 2340
0 16

fn=(1002)
0 11

fn=(1098)
0 192
cfn=(1100)
calls=6 0 
0 232
0 126

fn=(1100)
0 151
cfn=(1028)
calls=1 0 
0 114
0 3

fn=(176)
0 12

fn=(180)
0 12

fn=(198)
0 57

fn=(242)
0 6

fn=(318)
0 17

fn=(386)
0 9
cfn=(388)
calls=1 0 
0 72520
0 3
cfn=(385)
calls=1 0 
0 671

fn=(404)
0 175
cfn=(406)
calls=2 0 
0 110
0 77
cfn=(406)
calls=1 0 
0 27
0 11

fn=(534)
0 88

fn=(784)
0 48016

fn=(980)
0 26

fn=(982)
0 16
cfn=(758)
calls=1 0 
0 28
0 20

fn=(992)
0 7
cfn=(994)
calls=1 0 
0 1962

fn=(996)
0 20

fn=(1106)
0 9

fn=(186)
0 30

fn=(190)
0 21

fn=(206)
0 6

fn=(214)
0 33

fn=(226)
0 6

fn=(228)
0 20

fn=(284)
0 7

fn=(324)
0 111
cfn=(326)
calls=3 0 
0 984
0 27
cfn=(326)
calls=3 0 
0 311
0 39

fn=(396)
0 647

fn=(540)
0 6656
cfn=(542)
calls=128 0 
0 768
0 384
cfn=(544) __gconv_btwoc_ascii
calls=128 0 
0 768
0 2816

fn=(544)
0 768

fn=(552)
0 18173

fn=(752)
0 10
cfn=(754)
calls=2 0 
0 22

fn=(788)
0 12000

fn=(802)
0 504
cfn=(804) _int_free
calls=24 0 
0 2024

fn=(804)
0 1468
cfn=(806)
calls=4 0 
0 124
0 348
cfn=(806)
calls=2 0 
0 42
0 42

fn=(990)
0 122
cfn=(1026)
calls=7 0 
0 238
0 85

fn=(998)
0 24

fn=(1026)
0 281
cfn=(1028)
calls=1 0 
0 5
0 2
cfn=(748)
calls=1 0 
0 177
0 6

fn=(1056)
0 102

fn=(1102)
0 25
cfn=(1104)
calls=1 0 
0 46
0 31

fn=(1196)
0 8
cfn=(1198)
calls=2 0 
0 138
0 24

fn=(1200)
0 6

fn=(174)
0 105

fn=(196)
0 24

ob=(6)
fl=(6)
fn=(336) get_available_features
258 2
+24 2
+6 2
+3 4
+18 3
+3 4
+2 4
+2 4
+2 4
+2 4
+2 4
+2 4
+2 4
+2 4
+2 4
+1 2
+2 2
+1 1
+1 2
+5 2
+2 3
+1 2
+2 2
+2 2
+3 2
+2 2
+40 2
+2 2
+2 2
+2 2
+2 2
+2 2
+2 2
+5 2
+6 2
294 1
+1 1
-2 1
+2 3

fn=(332)
425 2
+9 1
+1 1
-10 1
+9 3
fi=(7) /build/gcc/src/gcc-build/gcc/include/cpuid.h
264 2
+21 2
fe=(6)

ob=(5)
fl=(5)
fn=(1068)
0 9
cob=(3)
cfi=(3)
cfn=(1054)
calls=1 0 
0 159
0 1
cfn=(1076) 0x0000000000001050
calls=1 0 
0 5
0 3

fn=(1076)
0 5

fn=(304)
0 10

ob=(6)
fl=(6)
fn=(332)
fi=(7)
288 4
fe=(6)
447 2
fi=(7)
264 2
+21 2
+3 4
fe=(6)
459 1
+1 1
-1 1
+3 1
-2 1
+2 1
-3 1
+1 1
+2 1
+3 2
+40 4
-32 2
+6 2
cfn=(336)
calls=1 258 
* 99
+1 1
+24 2
-30 2
125 2
+8 7
+50 2
+2 1

fl=(8)
fn=(1176)
0 9
cob=(3)
cfi=(3)
cfn=(1054)
calls=1 0 
0 159
0 1
cfn=(1184) 0x00000000000036b0
calls=1 0 
0 5
0 3

ob=(5)
fl=(5)
fn=(304)
0 2

ob=(6)
fl=(8)
fn=(1184)
0 5

fn=(338)
0 12

ob=(9)
fl=(59)
fn=(670)
0 12
cob=(3)
cfi=(3)
cfn=(672)
calls=1 0 
0 3596493

fn=(1060) 0x00000000000026d0
0 5

fn=(674)
0 15
cob=(2)
cfi=(2)
cfn=(676)
calls=1 0 
0 7
0 8
cfn=(680) 0x0000000000002790
calls=1 0 
0 12
0 4
cfn=(686) _GLOBAL__sub_I_profile_native.cpp
calls=1 0 
0 2107
0 14

fn=(686)
0 3
cob=(1)
cfi=(1)
cfn=(474)
calls=1 0 
0 923
0 5
0 4
cob=(1)
cfi=(1)
cfn=(474)
calls=1 0 
0 1044
0 5
0 43
cob=(3)
cfi=(3)
cfn=(368)
calls=1 0 
0 79
0 1

fn=(1040)
0 77
cfn=(834)
calls=9 0 
0 72
0 31

fn=(680)
0 12

fn=(808) calculateStandardDeviation(Calculator*, CommandFactory*, std::vector<double, std::allocator<double> >&)
0 27
cob=(1)
cfi=(1)
cfn=(474)
calls=1 0 
0 4619
0 5
0 4995
cob=(8)
cfi=(25)
cfn=(814)
calls=999 0 
0 132867
0 999
0 3000
cfn=(832)
calls=1000 0 
0 27000
0 5000
cob=(8)
cfi=(25)
cfn=(846)
calls=999 0 
0 54461
cob=(1)
cfi=(1)
cfn=(474)
calls=1 0 
0 3396
0 1004
0 7000
cfn=(834)
calls=1000 0 
0 8000
0 7000
cfn=(834)
calls=1000 0 
0 8000
0 3013
cob=(8)
cfi=(25)
cfn=(814)
calls=1 0 
0 910
0 1
0 3
cfn=(832)
calls=1 0 
0 27
0 5
cob=(8)
cfi=(25)
cfn=(846)
calls=1 0 
0 50
0 1
0 7
cfn=(834)
calls=1 0 
0 8
0 7
cob=(8)
cfi=(25)
cfn=(814)
calls=1 0 
0 1788
0 1
0 23
cfn=(834)
calls=1 0 
0 8
0 8
cfn=(832)
calls=1 0 
0 27
0 5
cob=(8)
cfi=(25)
cfn=(846)
calls=1 0 
0 961
0 1
0 7
cfn=(834)
calls=1 0 
0 8
0 11
cob=(8)
cfi=(25)
cfn=(814)
calls=1 0 
0 133
0 1
0 23
cfn=(834)
calls=1 0 
0 8
0 8
cfn=(832)
calls=1 0 
0 27
0 5
cob=(8)
cfi=(25)
cfn=(846)
calls=1 0 
0 50
0 1
0 7
cfn=(834)
calls=1 0 
0 8
0 2
cob=(1)
cfi=(1)
cfn=(474)
calls=1 0 
0 857
0 5
0 14
cob=(8)
cfi=(25)
cfn=(814)
calls=1 0 
0 103
0 1
0 23
cfn=(834)
calls=1 0 
0 8
0 8
cfn=(832)
calls=1 0 
0 27
0 5
cob=(8)
cfi=(25)
cfn=(846)
calls=1 0 
0 50
0 1
0 7
cfn=(834)
calls=1 0 
0 8
0 4008
cfn=(834)
calls=1000 0 
0 8000
0 8000
cfn=(832)
calls=1000 0 
0 27000
0 5000
cob=(8)
cfi=(25)
cfn=(846)
calls=1000 0 
0 50000
0 1000
0 7000
cfn=(834)
calls=1000 0 
0 8000
0 6000
cob=(8)
cfi=(25)
cfn=(814)
calls=1000 0 
0 171525
0 1000
0 23000
cfn=(834)
calls=1000 0 
0 8000
0 8000
cfn=(832)
calls=1000 0 
0 27000
0 5000
cob=(8)
cfi=(25)
cfn=(846)
calls=1000 0 
0 246112
0 1000
0 7000
cfn=(834)
calls=1000 0 
0 8000
0 2000
cob=(8)
cfi=(25)
cfn=(820)
calls=1000 0 
0 2000
0 1000
0 17000
cob=(8)
cfi=(25)
cfn=(814)
calls=1000 0 
0 103000
0 1000
0 19006
cob=(8)
cfi=(25)
cfn=(814)
calls=1 0 
0 103
0 1
0 23
cfn=(834)
calls=1 0 
0 8
0 8
cfn=(832)
calls=1 0 
0 27
0 5
cob=(8)
cfi=(25)
cfn=(846)
calls=1 0 
0 50
0 1
0 7
cfn=(834)
calls=1 0 
0 8
0 4007
cfn=(834)
calls=1000 0 
0 8000
0 8000
cfn=(832)
calls=1000 0 
0 27000
0 5000
cob=(8)
cfi=(25)
cfn=(846)
calls=1000 0 
0 50000
0 1000
0 7000
cfn=(834)
calls=1000 0 
0 8000
0 10000
cob=(8)
cfi=(25)
cfn=(814)
calls=1000 0 
0 133000
0 1000
0 19006
cob=(8)
cfi=(25)
cfn=(814)
calls=1 0 
0 133
0 1
0 23
cfn=(834)
calls=1 0 
0 8
0 8
cfn=(832)
calls=1 0 
0 27
0 5
cob=(8)
cfi=(25)
cfn=(846)
calls=1 0 
0 50
0 1
0 7
cfn=(834)
calls=1 0 
0 8
0 12
cob=(8)
cfi=(25)
cfn=(814)
calls=1 0 
0 156
0 1
0 23
cfn=(834)
calls=1 0 
0 8
0 8
cfn=(832)
calls=1 0 
0 27
0 5
cob=(8)
cfi=(25)
cfn=(846)
calls=1 0 
0 50
0 1
0 7
cfn=(834)
calls=1 0 
0 8
0 5
cob=(8)
cfi=(25)
cfn=(814)
calls=1 0 
0 144
0 1
0 23
cfn=(834)
calls=1 0 
0 8
0 8
cfn=(832)
calls=1 0 
0 27
0 5
cob=(8)
cfi=(25)
cfn=(846)
calls=1 0 
0 229
0 1
0 7
cfn=(834)
calls=1 0 
0 8
0 2
cob=(8)
cfi=(25)
cfn=(820)
calls=1 0 
0 2
0 1
0 5
cob=(7)
cfi=(61)
cfn=(800)
calls=1 48 
0 192
0 1
0 9
cfn=(834)
calls=1 0 
0 8
0 14
cfn=(930) std::vector<double, std::allocator<double> >::_M_default_append(unsigned long)
calls=1 0 
0 4343
0 1

fn=(854)
0 16032
cob=(8)
cfi=(25)
cfn=(938)
calls=1 0 
0 181
cob=(8)
cfi=(25)
cfn=(936)
calls=1 0 
0 2
cob=(8)
cfi=(25)
cfn=(932)
calls=1002 0 
0 2004
cob=(8)
cfi=(25)
cfn=(924)
calls=1 0 
0 2
cob=(8)
cfi=(25)
cfn=(886)
calls=1001 0 
0 192947
cob=(8)
cfi=(25)
cfn=(872)
calls=2 0 
0 4
cob=(8)
cfi=(25)
cfn=(856)
calls=2000 0 
0 4000

fn=(704)
0 12
cob=(1)
cfi=(1)
cfn=(474)
calls=1 0 
0 888
0 5
0 4
cob=(1)
cfi=(1)
cfn=(474)
calls=1 0 
0 2912
0 5
0 2
cob=(7)
cfi=(60)
cfn=(710)
calls=1 43 
0 197
0 1
0 4
cob=(1)
cfi=(1)
cfn=(474)
calls=1 0 
0 924
0 5
0 9
cob=(1)
cfi=(1)
cfn=(474)
calls=1 0 
0 3568
0 5
0 4000
cob=(3)
cfi=(3)
cfn=(738)
calls=1000 0 
0 2215033
0 1000
0 10119
cob=(7)
cfi=(60)
cfn=(710)
calls=11 43 
0 2270
0 11
0 187
cfn=(808)
calls=1 0 
0 1337169
0 2
cob=(1)
cfi=(1)
cfn=(474)
calls=1 0 
0 5977
0 5
0 4
cob=(7)
cfi=(61)
cfn=(800)
calls=1 48 
0 192
0 1
0 62
cob=(3)
cfi=(3)
cfn=(776)
calls=9 0 
0 1778
cob=(1)
cfi=(1)
cfn=(474)
calls=1 0 
0 912
0 14
0 60
cob=(7)
cfi=(61)
cfn=(800)
calls=9 48 
0 884
cob=(1)
cfi=(1)
cfn=(474)
calls=1 0 
0 776
0 14
0 32

fn=(834)
0 184584

fn=(832)
0 121242
cfn=(834)
calls=11022 0 
0 88176
0 88176

fn=(930)
0 35
cob=(7)
cfi=(60)
cfn=(710)
calls=1 43 
0 282
0 1
0 4025

fn=(1048)
0 9
cob=(3)
cfi=(3)
cfn=(1054)
calls=1 0 
0 159
0 1
cfn=(1060)
calls=1 0 
0 5
0 3

totals: 6968111
